# List of external plug-in models previously loaded. Timestamp: 1583418600467
file:/C:/Users/limao/.p2/pool/plugins/ch.qos.logback.classic_1.1.2.v20171220-1825.jar
file:/C:/Users/limao/.p2/pool/plugins/ch.qos.logback.core_1.1.2.v20160208-0839.jar
file:/C:/Users/limao/.p2/pool/plugins/ch.qos.logback.slf4j_1.1.2.v20160301-0943.jar
file:/C:/Users/limao/.p2/pool/plugins/com.google.gson_2.8.2.v20180104-1110.jar
file:/C:/Users/limao/.p2/pool/plugins/com.google.guava_27.1.0.v20190517-1946.jar
file:/C:/Users/limao/.p2/pool/plugins/com.google.guava_21.0.0.v20170206-1425.jar
file:/C:/Users/limao/.p2/pool/plugins/com.google.javascript_0.0.20160315.v20161124-1903.jar
file:/C:/Users/limao/.p2/pool/plugins/com.google.protobuf_2.4.0.v201105131100.jar
file:/C:/Users/limao/.p2/pool/plugins/com.ibm.icu_64.2.0.v20190507-1337.jar
file:/C:/Users/limao/.p2/pool/plugins/com.jcraft.jsch_0.1.55.v20190404-1902.jar
file:/C:/Users/limao/.p2/pool/plugins/com.jcraft.jzlib_1.1.1.v201205102305.jar
file:/C:/Users/limao/.p2/pool/plugins/com.sun.el_2.2.0.v201303151357.jar
file:/C:/Users/limao/.p2/pool/plugins/com.sun.jna_4.5.1.v20190425-1842.jar
file:/C:/Users/limao/.p2/pool/plugins/com.sun.jna.platform_4.5.1.v20190425-1842.jar
file:/C:/Users/limao/.p2/pool/plugins/com.sun.xml.bind_2.2.0.v201505121915.jar
file:/C:/Users/limao/.p2/pool/plugins/java_cup.runtime_0.10.0.v201005080400.jar
file:/C:/Users/limao/.p2/pool/plugins/javaewah_1.1.6.v20160919-1400.jar
file:/C:/Users/limao/.p2/pool/plugins/javax.activation_1.1.0.v201211130549.jar
file:/C:/Users/limao/.p2/pool/plugins/javax.annotation_1.2.0.v201602091430.jar
file:/C:/Users/limao/.p2/pool/plugins/javax.el_2.2.0.v201303151357.jar
file:/C:/Users/limao/.p2/pool/plugins/javax.inject_1.0.0.v20091030.jar
file:/C:/Users/limao/.p2/pool/plugins/javax.jws_2.0.0.v201005080400.jar
file:/C:/Users/limao/.p2/pool/plugins/javax.mail_1.4.0.v201005080615.jar
file:/C:/Users/limao/.p2/pool/plugins/javax.persistence_2.2.1.v201807122140.jar
file:/C:/Users/limao/.p2/pool/plugins/javax.servlet_3.1.0.v201410161800.jar
file:/C:/Users/limao/.p2/pool/plugins/javax.servlet.jsp_2.2.0.v201112011158.jar
file:/C:/Users/limao/.p2/pool/plugins/javax.wsdl_1.6.2.v201012040545.jar
file:/C:/Users/limao/.p2/pool/plugins/javax.xml_1.3.4.v201005080400.jar
file:/C:/Users/limao/.p2/pool/plugins/javax.xml.bind_2.2.0.v201105210648.jar
file:/C:/Users/limao/.p2/pool/plugins/javax.xml.rpc_1.1.0.v201209140446/
file:/C:/Users/limao/.p2/pool/plugins/javax.xml.soap_1.2.0.v201005080501/
file:/C:/Users/limao/.p2/pool/plugins/javax.xml.stream_1.0.1.v201004272200.jar
file:/C:/Users/limao/.p2/pool/plugins/javax.xml.ws_2.1.0.v200902101523.jar
file:/C:/Users/limao/.p2/pool/plugins/net.i2p.crypto.eddsa_0.3.0.v20181102-1323.jar
file:/C:/Users/limao/.p2/pool/plugins/net.sourceforge.lpg.lpgjavaruntime_1.1.0.v201004271650.jar
file:/C:/Users/limao/.p2/pool/plugins/org.apache.ant_1.10.7.v20190926-0324/
file:/C:/Users/limao/.p2/pool/plugins/org.apache.axis_1.4.0.v201411182030/
file:/C:/Users/limao/.p2/pool/plugins/org.apache.batik.constants_1.11.0.v20190515-0436.jar
file:/C:/Users/limao/.p2/pool/plugins/org.apache.batik.css_1.11.0.v20190515-0436.jar
file:/C:/Users/limao/.p2/pool/plugins/org.apache.batik.i18n_1.11.0.v20190515-0436.jar
file:/C:/Users/limao/.p2/pool/plugins/org.apache.batik.util_1.11.0.v20190515-0436.jar
file:/C:/Users/limao/.p2/pool/plugins/org.apache.bcel_5.2.0.v201005080400.jar
file:/C:/Users/limao/.p2/pool/plugins/org.apache.commons.codec_1.10.0.v20180409-1845.jar
file:/C:/Users/limao/.p2/pool/plugins/org.apache.commons.collections_3.2.2.v201511171945.jar
file:/C:/Users/limao/.p2/pool/plugins/org.apache.commons.compress_1.18.0.v20181121-2221.jar
file:/C:/Users/limao/.p2/pool/plugins/org.apache.commons.discovery_0.2.0.v201004190315/
file:/C:/Users/limao/.p2/pool/plugins/org.apache.commons.httpclient_3.1.0.v201012070820.jar
file:/C:/Users/limao/.p2/pool/plugins/org.apache.commons.io_2.6.0.v20190123-2029.jar
file:/C:/Users/limao/.p2/pool/plugins/org.apache.commons.jxpath_1.3.0.v200911051830.jar
file:/C:/Users/limao/.p2/pool/plugins/org.apache.commons.lang_2.6.0.v201404270220.jar
file:/C:/Users/limao/.p2/pool/plugins/org.apache.commons.lang3_3.1.0.v201403281430.jar
file:/C:/Users/limao/.p2/pool/plugins/org.apache.commons.logging_1.2.0.v20180409-1502.jar
file:/C:/Users/limao/.p2/pool/plugins/org.apache.felix.gogo.command_1.0.2.v20170914-1324.jar
file:/C:/Users/limao/.p2/pool/plugins/org.apache.felix.gogo.runtime_1.1.0.v20180713-1646.jar
file:/C:/Users/limao/.p2/pool/plugins/org.apache.felix.gogo.shell_1.1.0.v20180713-1646.jar
file:/C:/Users/limao/.p2/pool/plugins/org.apache.felix.scr_2.1.14.v20190123-1619.jar
file:/C:/Users/limao/.p2/pool/plugins/org.apache.httpcomponents.httpclient_4.5.6.v20190503-0009.jar
file:/C:/Users/limao/.p2/pool/plugins/org.apache.httpcomponents.httpclient.win_4.5.6.v20190213-1947.jar
file:/C:/Users/limao/.p2/pool/plugins/org.apache.httpcomponents.httpcore_4.4.10.v20190123-2214.jar
file:/C:/Users/limao/.p2/pool/plugins/org.apache.jasper.glassfish_2.2.2.v201501141630.jar
file:/C:/Users/limao/.p2/pool/plugins/org.apache.log4j_1.2.15.v201012070815.jar
file:/C:/Users/limao/.p2/pool/plugins/org.apache.lucene.analyzers-common_8.0.0.v20190404-1858.jar
file:/C:/Users/limao/.p2/pool/plugins/org.apache.lucene.analyzers-common_7.5.0.v20181003-1532.jar
file:/C:/Users/limao/.p2/pool/plugins/org.apache.lucene.analyzers-common_6.1.0.v20161115-1612.jar
file:/C:/Users/limao/.p2/pool/plugins/org.apache.lucene.analyzers-smartcn_8.0.0.v20190404-1858.jar
file:/C:/Users/limao/.p2/pool/plugins/org.apache.lucene.core_8.0.0.v20190404-1858.jar
file:/C:/Users/limao/.p2/pool/plugins/org.apache.lucene.core_7.5.0.v20181003-1532.jar
file:/C:/Users/limao/.p2/pool/plugins/org.apache.lucene.core_6.1.0.v20170814-1820.jar
file:/C:/Users/limao/.p2/pool/plugins/org.apache.lucene.misc_7.5.0.v20181003-1532.jar
file:/C:/Users/limao/.p2/pool/plugins/org.apache.lucene.queryparser_7.5.0.v20181003-1532.jar
file:/C:/Users/limao/.p2/pool/plugins/org.apache.lucene.queryparser_6.1.0.v20161115-1612.jar
file:/C:/Users/limao/.p2/pool/plugins/org.apache.sshd.osgi_2.2.0.v20190425-2127.jar
file:/C:/Users/limao/.p2/pool/plugins/org.apache.sshd.sftp_2.2.0.v20190425-2127.jar
file:/C:/Users/limao/.p2/pool/plugins/org.apache.velocity_1.5.0.v200905192330.jar
file:/C:/Users/limao/.p2/pool/plugins/org.apache.ws.commons.util_1.0.1.v20100518-1140.jar
file:/C:/Users/limao/.p2/pool/plugins/org.apache.wsil4j_1.0.0.v20180522-1857.jar
file:/C:/Users/limao/.p2/pool/plugins/org.apache.xalan_2.7.1.v201005080400.jar
file:/C:/Users/limao/.p2/pool/plugins/org.apache.xerces_2.9.0.v201101211617.jar
file:/C:/Users/limao/.p2/pool/plugins/org.apache.xml.resolver_1.2.0.v201005080400.jar
file:/C:/Users/limao/.p2/pool/plugins/org.apache.xml.serializer_2.7.1.v201005080400.jar
file:/C:/Users/limao/.p2/pool/plugins/org.apache.xmlgraphics_2.3.0.v20190515-0436.jar
file:/C:/Users/limao/.p2/pool/plugins/org.apache.xmlrpc_3.0.0.v20100427-1100.jar
file:/C:/Users/limao/.p2/pool/plugins/org.apiguardian_1.1.0.v20190826-0900.jar
file:/C:/Users/limao/.p2/pool/plugins/org.bouncycastle.bcpg_1.64.0.v20191109-0815.jar
file:/C:/Users/limao/.p2/pool/plugins/org.bouncycastle.bcpkix_1.64.0.v20191109-0815.jar
file:/C:/Users/limao/.p2/pool/plugins/org.bouncycastle.bcprov_1.64.0.v20191109-0815.jar
file:/C:/Users/limao/.p2/pool/plugins/org.eclipse.ant.core_3.5.600.v20191122-2102.jar
file:/C:/Users/limao/.p2/pool/plugins/org.eclipse.ant.launching_1.2.700.v20191127-0426.jar
file:/C:/Users/limao/.p2/pool/plugins/org.eclipse.ant.ui_3.7.600.v20191122-2102.jar
file:/C:/Users/limao/.p2/pool/plugins/org.eclipse.buildship.branding_3.1.3.v20191118-1057.jar
file:/C:/Users/limao/.p2/pool/plugins/org.eclipse.buildship.core_3.1.3.v20191118-1057.jar
file:/C:/Users/limao/.p2/pool/plugins/org.eclipse.buildship.stsmigration_3.1.3.v20191118-1057.jar
file:/C:/Users/limao/.p2/pool/plugins/org.eclipse.buildship.ui_3.1.3.v20191118-1057.jar
file:/C:/Users/limao/.p2/pool/plugins/org.eclipse.cdt.core.native_5.10.300.201910171407.jar
file:/C:/Users/limao/.p2/pool/plugins/org.eclipse.cdt.core.win32_5.4.2.201811241055.jar
file:/C:/Users/limao/.p2/pool/plugins/org.eclipse.cdt.core.win32.x86_64_5.4.2.201811241055/
file:/C:/Users/limao/.p2/pool/plugins/org.eclipse.cft.server.branding.core_1.0.2.v201805291812.jar
file:/C:/Users/limao/.p2/pool/plugins/org.eclipse.cft.server.branding.ui_1.0.2.v201805291812.jar
file:/C:/Users/limao/.p2/pool/plugins/org.eclipse.cft.server.core_1.2.3.v201805291812.jar
file:/C:/Users/limao/.p2/pool/plugins/org.eclipse.cft.server.rse_1.0.1.v201805291812.jar
file:/C:/Users/limao/.p2/pool/plugins/org.eclipse.cft.server.standalone.core_1.0.4.v201805291812.jar
file:/C:/Users/limao/.p2/pool/plugins/org.eclipse.cft.server.standalone.ui_1.0.4.v201805291812.jar
file:/C:/Users/limao/.p2/pool/plugins/org.eclipse.cft.server.ui_1.0.110.v201805291812.jar
file:/C:/Users/limao/.p2/pool/plugins/org.eclipse.cft.server.verify.ui_1.0.1.v201805291812.jar
file:/C:/Users/limao/.p2/pool/plugins/org.eclipse.compare_3.7.800.v20191122-2107.jar
file:/C:/Users/limao/.p2/pool/plugins/org.eclipse.compare.core_3.6.700.v20191122-2107.jar
file:/C:/Users/limao/.p2/pool/plugins/org.eclipse.compare.win32_1.2.700.v20191122-2107.jar
file:/C:/Users/limao/.p2/pool/plugins/org.eclipse.core.commands_3.9.600.v20191122-2109.jar
file:/C:/Users/limao/.p2/pool/plugins/org.eclipse.core.contenttype_3.7.500.v20190916-2125.jar
file:/C:/Users/limao/.p2/pool/plugins/org.eclipse.core.databinding_1.7.700.v20191122-2109.jar
file:/C:/Users/limao/.p2/pool/plugins/org.eclipse.core.databinding.beans_1.6.0.v20191118-0932.jar
file:/C:/Users/limao/.p2/pool/plugins/org.eclipse.core.databinding.observable_1.8.100.v20191118-0932.jar
file:/C:/Users/limao/.p2/pool/plugins/org.eclipse.core.databinding.property_1.7.200.v20191105-1311.jar
file:/C:/Users/limao/.p2/pool/plugins/org.eclipse.core.expressions_3.6.600.v20191122-2104.jar
file:/C:/Users/limao/.p2/pool/plugins/org.eclipse.core.externaltools_1.1.500.v20191014-1300.jar
file:/C:/Users/limao/.p2/pool/plugins/org.eclipse.core.filebuffers_3.6.800.v20191122-2108.jar
file:/C:/Users/limao/.p2/pool/plugins/org.eclipse.core.filesystem_1.7.600.v20191122-2104.jar
file:/C:/Users/limao/.p2/pool/plugins/org.eclipse.core.filesystem.win32.x86_64_1.4.200.v20190812-0909.jar
file:/C:/Users/limao/.p2/pool/plugins/org.eclipse.core.jobs_3.10.600.v20191122-2104.jar
file:/C:/Users/limao/.p2/pool/plugins/org.eclipse.core.net_1.3.700.v20191122-2107.jar
file:/C:/Users/limao/.p2/pool/plugins/org.eclipse.core.net.win32.x86_64_1.1.500.v20190925-1337.jar
file:/C:/Users/limao/.p2/pool/plugins/org.eclipse.core.resources_3.13.600.v20191122-2104.jar
file:/C:/Users/limao/.p2/pool/plugins/org.eclipse.core.resources.win32.x86_64_3.5.400.v20190812-0909.jar
file:/C:/Users/limao/.p2/pool/plugins/org.eclipse.core.runtime_3.17.0.v20191122-2104.jar
file:/C:/Users/limao/.p2/pool/plugins/org.eclipse.core.variables_3.4.700.v20191114-1848.jar
file:/C:/Users/limao/.p2/pool/plugins/org.eclipse.datatools.common.doc.user_1.14.102.201911250848.jar
file:/C:/Users/limao/.p2/pool/plugins/org.eclipse.datatools.connectivity_1.14.102.201911250848.jar
file:/C:/Users/limao/.p2/pool/plugins/org.eclipse.datatools.connectivity.apache.derby_1.2.101.201811012051.jar
file:/C:/Users/limao/.p2/pool/plugins/org.eclipse.datatools.connectivity.apache.derby.dbdefinition_1.2.101.201811012051.jar
file:/C:/Users/limao/.p2/pool/plugins/org.eclipse.datatools.connectivity.apache.derby.ui_1.2.101.201811012051.jar
file:/C:/Users/limao/.p2/pool/plugins/org.eclipse.datatools.connectivity.console.profile_1.2.101.201811012051.jar
file:/C:/Users/limao/.p2/pool/plugins/org.eclipse.datatools.connectivity.db.generic_1.2.101.201811012051.jar
file:/C:/Users/limao/.p2/pool/plugins/org.eclipse.datatools.connectivity.db.generic.ui_1.2.101.201811012051.jar
file:/C:/Users/limao/.p2/pool/plugins/org.eclipse.datatools.connectivity.dbdefinition.genericJDBC_1.2.101.201811012051.jar
file:/C:/Users/limao/.p2/pool/plugins/org.eclipse.datatools.connectivity.doc.user_1.14.102.201911250848.jar
file:/C:/Users/limao/.p2/pool/plugins/org.eclipse.datatools.connectivity.doc.user.contexts_1.7.101.201811012051.jar
file:/C:/Users/limao/.p2/pool/plugins/org.eclipse.datatools.connectivity.oda_3.6.101.201811012051.jar
file:/C:/Users/limao/.p2/pool/plugins/org.eclipse.datatools.connectivity.oda.consumer_3.4.101.201811012051.jar
file:/C:/Users/limao/.p2/pool/plugins/org.eclipse.datatools.connectivity.oda.design_3.5.101.201811012051.jar
file:/C:/Users/limao/.p2/pool/plugins/org.eclipse.datatools.connectivity.oda.design.ui_3.4.101.201811012051.jar
file:/C:/Users/limao/.p2/pool/plugins/org.eclipse.datatools.connectivity.oda.flatfile_3.3.101.201811012051.jar
file:/C:/Users/limao/.p2/pool/plugins/org.eclipse.datatools.connectivity.oda.flatfile.ui_3.3.101.201811012051.jar
file:/C:/Users/limao/.p2/pool/plugins/org.eclipse.datatools.connectivity.oda.profile_3.4.101.201811012051.jar
file:/C:/Users/limao/.p2/pool/plugins/org.eclipse.datatools.connectivity.oda.template.ui_3.4.101.201811012051.jar
file:/C:/Users/limao/.p2/pool/plugins/org.eclipse.datatools.connectivity.sqm.core_1.4.101.201811012051.jar
file:/C:/Users/limao/.p2/pool/plugins/org.eclipse.datatools.connectivity.sqm.core.ui_1.4.101.201811012051.jar
file:/C:/Users/limao/.p2/pool/plugins/org.eclipse.datatools.connectivity.sqm.server.ui_1.3.101.201811012051.jar
file:/C:/Users/limao/.p2/pool/plugins/org.eclipse.datatools.connectivity.ui_1.4.101.201811012051.jar
file:/C:/Users/limao/.p2/pool/plugins/org.eclipse.datatools.connectivity.ui.dse_1.3.101.201811012051.jar
file:/C:/Users/limao/.p2/pool/plugins/org.eclipse.datatools.connectivity.ui.templates_1.2.101.201811012051.jar
file:/C:/Users/limao/.p2/pool/plugins/org.eclipse.datatools.doc.isv_1.14.102.201911250848.jar
file:/C:/Users/limao/.p2/pool/plugins/org.eclipse.datatools.doc.user_1.14.102.201911250848.jar
file:/C:/Users/limao/.p2/pool/plugins/org.eclipse.datatools.enablement.finfo_1.7.101.201811012051.jar
file:/C:/Users/limao/.p2/pool/plugins/org.eclipse.datatools.enablement.hsqldb_1.2.101.201811012051.jar
file:/C:/Users/limao/.p2/pool/plugins/org.eclipse.datatools.enablement.hsqldb.dbdefinition_1.2.101.201811012051.jar
file:/C:/Users/limao/.p2/pool/plugins/org.eclipse.datatools.enablement.hsqldb.ui_1.2.101.201811012051.jar
file:/C:/Users/limao/.p2/pool/plugins/org.eclipse.datatools.enablement.ibm_1.2.101.201811012051.jar
file:/C:/Users/limao/.p2/pool/plugins/org.eclipse.datatools.enablement.ibm.db2_1.2.101.201811012051.jar
file:/C:/Users/limao/.p2/pool/plugins/org.eclipse.datatools.enablement.ibm.db2.iseries_1.2.101.201811012051.jar
file:/C:/Users/limao/.p2/pool/plugins/org.eclipse.datatools.enablement.ibm.db2.iseries.dbdefinition_1.2.101.201811012051.jar
file:/C:/Users/limao/.p2/pool/plugins/org.eclipse.datatools.enablement.ibm.db2.iseries.ui_1.2.101.201811012051.jar
file:/C:/Users/limao/.p2/pool/plugins/org.eclipse.datatools.enablement.ibm.db2.luw_1.2.101.201811012051.jar
file:/C:/Users/limao/.p2/pool/plugins/org.eclipse.datatools.enablement.ibm.db2.luw.dbdefinition_1.2.101.201811012051.jar
file:/C:/Users/limao/.p2/pool/plugins/org.eclipse.datatools.enablement.ibm.db2.luw.ui_1.2.101.201811012051.jar
file:/C:/Users/limao/.p2/pool/plugins/org.eclipse.datatools.enablement.ibm.db2.zseries_1.2.101.201811012051.jar
file:/C:/Users/limao/.p2/pool/plugins/org.eclipse.datatools.enablement.ibm.db2.zseries.dbdefinition_1.2.101.201811012051.jar
file:/C:/Users/limao/.p2/pool/plugins/org.eclipse.datatools.enablement.ibm.db2.zseries.ui_1.2.101.201811012051.jar
file:/C:/Users/limao/.p2/pool/plugins/org.eclipse.datatools.enablement.ibm.informix_1.2.101.201811012051.jar
file:/C:/Users/limao/.p2/pool/plugins/org.eclipse.datatools.enablement.ibm.informix.dbdefinition_1.2.101.201811012051.jar
file:/C:/Users/limao/.p2/pool/plugins/org.eclipse.datatools.enablement.ibm.informix.ui_1.2.101.201811012051.jar
file:/C:/Users/limao/.p2/pool/plugins/org.eclipse.datatools.enablement.ibm.ui_1.2.101.201811012051.jar
file:/C:/Users/limao/.p2/pool/plugins/org.eclipse.datatools.enablement.ingres_1.2.101.201811012051.jar
file:/C:/Users/limao/.p2/pool/plugins/org.eclipse.datatools.enablement.ingres.dbdefinition_1.2.101.201811012051.jar
file:/C:/Users/limao/.p2/pool/plugins/org.eclipse.datatools.enablement.ingres.ui_1.2.101.201811012051.jar
file:/C:/Users/limao/.p2/pool/plugins/org.eclipse.datatools.enablement.jdt.classpath_1.2.101.201807030125.jar
file:/C:/Users/limao/.p2/pool/plugins/org.eclipse.datatools.enablement.msft.sqlserver_1.2.101.201811012051.jar
file:/C:/Users/limao/.p2/pool/plugins/org.eclipse.datatools.enablement.msft.sqlserver.dbdefinition_1.2.101.201811012051.jar
file:/C:/Users/limao/.p2/pool/plugins/org.eclipse.datatools.enablement.msft.sqlserver.ui_1.2.101.201811012051.jar
file:/C:/Users/limao/.p2/pool/plugins/org.eclipse.datatools.enablement.mysql_1.2.101.201811012051.jar
file:/C:/Users/limao/.p2/pool/plugins/org.eclipse.datatools.enablement.mysql.dbdefinition_1.2.101.201811012051.jar
file:/C:/Users/limao/.p2/pool/plugins/org.eclipse.datatools.enablement.mysql.ui_1.2.101.201811012051.jar
file:/C:/Users/limao/.p2/pool/plugins/org.eclipse.datatools.enablement.oda.ws_1.4.101.201811012051.jar
file:/C:/Users/limao/.p2/pool/plugins/org.eclipse.datatools.enablement.oda.ws.ui_1.4.101.201811012051.jar
file:/C:/Users/limao/.p2/pool/plugins/org.eclipse.datatools.enablement.oda.xml_1.4.102.201901091730.jar
file:/C:/Users/limao/.p2/pool/plugins/org.eclipse.datatools.enablement.oda.xml.ui_1.4.101.201811012051.jar
file:/C:/Users/limao/.p2/pool/plugins/org.eclipse.datatools.enablement.oracle_1.2.101.201811012051.jar
file:/C:/Users/limao/.p2/pool/plugins/org.eclipse.datatools.enablement.oracle.dbdefinition_1.2.101.201811012051.jar
file:/C:/Users/limao/.p2/pool/plugins/org.eclipse.datatools.enablement.oracle.ui_1.2.101.201811012051.jar
file:/C:/Users/limao/.p2/pool/plugins/org.eclipse.datatools.enablement.postgresql_1.3.101.201811012051.jar
file:/C:/Users/limao/.p2/pool/plugins/org.eclipse.datatools.enablement.postgresql.dbdefinition_1.2.101.201811012051.jar
file:/C:/Users/limao/.p2/pool/plugins/org.eclipse.datatools.enablement.postgresql.ui_1.2.101.201811012051.jar
file:/C:/Users/limao/.p2/pool/plugins/org.eclipse.datatools.enablement.sap.maxdb_1.2.101.201811012051.jar
file:/C:/Users/limao/.p2/pool/plugins/org.eclipse.datatools.enablement.sap.maxdb.dbdefinition_1.2.101.201811012051.jar
file:/C:/Users/limao/.p2/pool/plugins/org.eclipse.datatools.enablement.sap.maxdb.ui_1.2.101.201811012051.jar
file:/C:/Users/limao/.p2/pool/plugins/org.eclipse.datatools.enablement.sqlite_1.2.101.201811012051.jar
file:/C:/Users/limao/.p2/pool/plugins/org.eclipse.datatools.enablement.sqlite.dbdefinition_1.2.101.201811012051.jar
file:/C:/Users/limao/.p2/pool/plugins/org.eclipse.datatools.enablement.sqlite.ui_1.2.101.201811012051.jar
file:/C:/Users/limao/.p2/pool/plugins/org.eclipse.datatools.enablement.sybase_1.2.101.201811012051.jar
file:/C:/Users/limao/.p2/pool/plugins/org.eclipse.datatools.enablement.sybase.asa_1.2.101.201811012051.jar
file:/C:/Users/limao/.p2/pool/plugins/org.eclipse.datatools.enablement.sybase.asa.dbdefinition_1.2.101.201811012051.jar
file:/C:/Users/limao/.p2/pool/plugins/org.eclipse.datatools.enablement.sybase.asa.models_1.2.101.201811012051.jar
file:/C:/Users/limao/.p2/pool/plugins/org.eclipse.datatools.enablement.sybase.asa.schemaobjecteditor.examples_2.7.101.201811012051.jar
file:/C:/Users/limao/.p2/pool/plugins/org.eclipse.datatools.enablement.sybase.asa.ui_1.2.101.201811012051.jar
file:/C:/Users/limao/.p2/pool/plugins/org.eclipse.datatools.enablement.sybase.ase_1.2.101.201811012051.jar
file:/C:/Users/limao/.p2/pool/plugins/org.eclipse.datatools.enablement.sybase.ase.dbdefinition_1.2.101.201811012051.jar
file:/C:/Users/limao/.p2/pool/plugins/org.eclipse.datatools.enablement.sybase.ase.models_1.2.101.201811012051.jar
file:/C:/Users/limao/.p2/pool/plugins/org.eclipse.datatools.enablement.sybase.ase.ui_1.2.101.201811012051.jar
file:/C:/Users/limao/.p2/pool/plugins/org.eclipse.datatools.enablement.sybase.models_1.2.101.201811012051.jar
file:/C:/Users/limao/.p2/pool/plugins/org.eclipse.datatools.enablement.sybase.ui_1.2.101.201811012051.jar
file:/C:/Users/limao/.p2/pool/plugins/org.eclipse.datatools.help_1.7.101.201811012051.jar
file:/C:/Users/limao/.p2/pool/plugins/org.eclipse.datatools.intro_1.14.102.201911250848.jar
file:/C:/Users/limao/.p2/pool/plugins/org.eclipse.datatools.modelbase.dbdefinition_1.2.101.201811012051.jar
file:/C:/Users/limao/.p2/pool/plugins/org.eclipse.datatools.modelbase.derby_1.2.101.201811012051.jar
file:/C:/Users/limao/.p2/pool/plugins/org.eclipse.datatools.modelbase.sql_1.2.101.201811012051.jar
file:/C:/Users/limao/.p2/pool/plugins/org.eclipse.datatools.modelbase.sql.edit_1.2.101.201811012051.jar
file:/C:/Users/limao/.p2/pool/plugins/org.eclipse.datatools.modelbase.sql.query_1.3.201.201811012051.jar
file:/C:/Users/limao/.p2/pool/plugins/org.eclipse.datatools.modelbase.sql.query.edit_1.2.101.201811012051.jar
file:/C:/Users/limao/.p2/pool/plugins/org.eclipse.datatools.modelbase.sql.xml.query_1.2.101.201811012051.jar
file:/C:/Users/limao/.p2/pool/plugins/org.eclipse.datatools.oda.cshelp_1.3.101.201811012051.jar
file:/C:/Users/limao/.p2/pool/plugins/org.eclipse.datatools.sdk_1.9.101.201811012051.jar
file:/C:/Users/limao/.p2/pool/plugins/org.eclipse.datatools.sqltools.common.ui_1.2.101.201811012051.jar
file:/C:/Users/limao/.p2/pool/plugins/org.eclipse.datatools.sqltools.data.core_1.4.101.201811012051.jar
file:/C:/Users/limao/.p2/pool/plugins/org.eclipse.datatools.sqltools.data.ui_1.4.101.201811012051.jar
file:/C:/Users/limao/.p2/pool/plugins/org.eclipse.datatools.sqltools.db.derby_1.2.101.201811012051.jar
file:/C:/Users/limao/.p2/pool/plugins/org.eclipse.datatools.sqltools.db.derby.ui_1.2.101.201811012051.jar
file:/C:/Users/limao/.p2/pool/plugins/org.eclipse.datatools.sqltools.db.generic_1.2.101.201811012051.jar
file:/C:/Users/limao/.p2/pool/plugins/org.eclipse.datatools.sqltools.db.generic.ui_1.2.101.201811012051.jar
file:/C:/Users/limao/.p2/pool/plugins/org.eclipse.datatools.sqltools.ddlgen.ui_1.2.101.201811012051.jar
file:/C:/Users/limao/.p2/pool/plugins/org.eclipse.datatools.sqltools.debugger.core_1.2.101.201811012051.jar
file:/C:/Users/limao/.p2/pool/plugins/org.eclipse.datatools.sqltools.debugger.core.ui_1.2.101.201811012051.jar
file:/C:/Users/limao/.p2/pool/plugins/org.eclipse.datatools.sqltools.doc.user_1.14.102.201911250848.jar
file:/C:/Users/limao/.p2/pool/plugins/org.eclipse.datatools.sqltools.doc.user.contexts_1.7.101.201811012051.jar
file:/C:/Users/limao/.p2/pool/plugins/org.eclipse.datatools.sqltools.editor.core_1.2.101.201811012051.jar
file:/C:/Users/limao/.p2/pool/plugins/org.eclipse.datatools.sqltools.editor.core.ui_1.2.101.201811012051.jar
file:/C:/Users/limao/.p2/pool/plugins/org.eclipse.datatools.sqltools.parsers.sql_1.2.101.201811012051.jar
file:/C:/Users/limao/.p2/pool/plugins/org.eclipse.datatools.sqltools.parsers.sql.lexer_1.2.101.201811012051.jar
file:/C:/Users/limao/.p2/pool/plugins/org.eclipse.datatools.sqltools.parsers.sql.query_1.4.101.201811012051.jar
file:/C:/Users/limao/.p2/pool/plugins/org.eclipse.datatools.sqltools.parsers.sql.xml.query_1.2.101.201811012051.jar
file:/C:/Users/limao/.p2/pool/plugins/org.eclipse.datatools.sqltools.plan_1.2.101.201811012051.jar
file:/C:/Users/limao/.p2/pool/plugins/org.eclipse.datatools.sqltools.result_1.3.201.201905112017.jar
file:/C:/Users/limao/.p2/pool/plugins/org.eclipse.datatools.sqltools.result.ui_1.3.101.201811012051.jar
file:/C:/Users/limao/.p2/pool/plugins/org.eclipse.datatools.sqltools.routineeditor_1.2.101.201811012051.jar
file:/C:/Users/limao/.p2/pool/plugins/org.eclipse.datatools.sqltools.routineeditor.ui_1.2.101.201811012051.jar
file:/C:/Users/limao/.p2/pool/plugins/org.eclipse.datatools.sqltools.schemaobjecteditor_1.3.101.201811012051.jar
file:/C:/Users/limao/.p2/pool/plugins/org.eclipse.datatools.sqltools.schemaobjecteditor.ui_1.3.101.201811012051.jar
file:/C:/Users/limao/.p2/pool/plugins/org.eclipse.datatools.sqltools.schemaobjecteditor.ui.pages_1.3.101.201811012051.jar
file:/C:/Users/limao/.p2/pool/plugins/org.eclipse.datatools.sqltools.sql_1.2.101.201811012051.jar
file:/C:/Users/limao/.p2/pool/plugins/org.eclipse.datatools.sqltools.sql.ui_1.2.101.201811012051.jar
file:/C:/Users/limao/.p2/pool/plugins/org.eclipse.datatools.sqltools.sqlbuilder_1.2.202.201905112017.jar
file:/C:/Users/limao/.p2/pool/plugins/org.eclipse.datatools.sqltools.sqleditor_1.2.101.201811012051.jar
file:/C:/Users/limao/.p2/pool/plugins/org.eclipse.datatools.sqltools.sqlscrapbook_1.2.101.201811012051.jar
file:/C:/Users/limao/.p2/pool/plugins/org.eclipse.datatools.sqltools.tabledataeditor_1.2.101.201811012051.jar
file:/C:/Users/limao/.p2/pool/plugins/org.eclipse.debug.core_3.14.100.v20191115-1406.jar
file:/C:/Users/limao/.p2/pool/plugins/org.eclipse.debug.ui_3.14.300.v20191116-2105.jar
file:/C:/Users/limao/.p2/pool/plugins/org.eclipse.draw2d_3.10.100.201606061308.jar
file:/C:/Users/limao/.p2/pool/plugins/org.eclipse.e4.core.commands_0.12.800.v20190926-0808.jar
file:/C:/Users/limao/.p2/pool/plugins/org.eclipse.e4.core.contexts_1.8.300.v20191017-1404.jar
file:/C:/Users/limao/.p2/pool/plugins/org.eclipse.e4.core.di_1.7.500.v20190916-2125.jar
file:/C:/Users/limao/.p2/pool/plugins/org.eclipse.e4.core.di.annotations_1.6.500.v20190925-0538.jar
file:/C:/Users/limao/.p2/pool/plugins/org.eclipse.e4.core.di.extensions_0.15.400.v20191122-2104.jar
file:/C:/Users/limao/.p2/pool/plugins/org.eclipse.e4.core.di.extensions.supplier_0.15.400.v20190709-0707.jar
file:/C:/Users/limao/.p2/pool/plugins/org.eclipse.e4.core.services_2.2.100.v20191122-2104.jar
file:/C:/Users/limao/.p2/pool/plugins/org.eclipse.e4.emf.xpath_0.2.500.v20191021-1408.jar
file:/C:/Users/limao/.p2/pool/plugins/org.eclipse.e4.ui.bindings_0.12.700.v20191105-1310.jar
file:/C:/Users/limao/.p2/pool/plugins/org.eclipse.e4.ui.css.core_0.12.900.v20191106-1716.jar
file:/C:/Users/limao/.p2/pool/plugins/org.eclipse.e4.ui.css.swt_0.13.700.v20191113-1031.jar
file:/C:/Users/limao/.p2/pool/plugins/org.eclipse.e4.ui.css.swt.theme_0.12.500.v20191125-1011.jar
file:/C:/Users/limao/.p2/pool/plugins/org.eclipse.e4.ui.di_1.2.700.v20191114-0830.jar
file:/C:/Users/limao/.p2/pool/plugins/org.eclipse.e4.ui.dialogs_1.1.600.v20190814-0636.jar
file:/C:/Users/limao/.p2/pool/plugins/org.eclipse.e4.ui.model.workbench_2.1.600.v20191106-1503.jar
file:/C:/Users/limao/.p2/pool/plugins/org.eclipse.e4.ui.services_1.3.700.v20190930-1643.jar
file:/C:/Users/limao/.p2/pool/plugins/org.eclipse.e4.ui.widgets_1.2.600.v20190926-0808.jar
file:/C:/Users/limao/.p2/pool/plugins/org.eclipse.e4.ui.workbench_1.11.0.v20191120-1917.jar
file:/C:/Users/limao/.p2/pool/plugins/org.eclipse.e4.ui.workbench.addons.swt_1.3.700.v20191030-1314.jar
file:/C:/Users/limao/.p2/pool/plugins/org.eclipse.e4.ui.workbench.renderers.swt_0.14.900.v20191114-0715.jar
file:/C:/Users/limao/.p2/pool/plugins/org.eclipse.e4.ui.workbench.swt_0.14.800.v20190930-1643.jar
file:/C:/Users/limao/.p2/pool/plugins/org.eclipse.e4.ui.workbench3_0.15.300.v20190926-0808.jar
file:/C:/Users/limao/.p2/pool/plugins/org.eclipse.ecf_3.9.4.v20191020-1846.jar
file:/C:/Users/limao/.p2/pool/plugins/org.eclipse.ecf.filetransfer_5.0.300.v20191020-1846.jar
file:/C:/Users/limao/.p2/pool/plugins/org.eclipse.ecf.identity_3.9.300.v20191020-1846.jar
file:/C:/Users/limao/.p2/pool/plugins/org.eclipse.ecf.provider.filetransfer_3.2.500.v20191017-1905.jar
file:/C:/Users/limao/.p2/pool/plugins/org.eclipse.ecf.provider.filetransfer.httpclient45_1.0.100.v20191012-1656.jar
file:/C:/Users/limao/.p2/pool/plugins/org.eclipse.ecf.provider.filetransfer.httpclient45.win32_1.0.0.v20190502-2116.jar
file:/C:/Users/limao/.p2/pool/plugins/org.eclipse.ecf.provider.filetransfer.ssl_1.0.101.v20191012-1926.jar
file:/C:/Users/limao/.p2/pool/plugins/org.eclipse.ecf.ssl_1.2.300.v20191012-1926.jar
file:/C:/Users/limao/.p2/pool/plugins/org.eclipse.eclemma.core_3.1.2.201903112331.jar
file:/C:/Users/limao/.p2/pool/plugins/org.eclipse.eclemma.doc_3.1.2.201903112331.jar
file:/C:/Users/limao/.p2/pool/plugins/org.eclipse.eclemma.ui_3.1.2.201903112331.jar
file:/C:/Users/limao/.p2/pool/plugins/org.eclipse.egit_5.6.0.201912101111-r.jar
file:/C:/Users/limao/.p2/pool/plugins/org.eclipse.egit.core_5.6.0.201912101111-r.jar
file:/C:/Users/limao/.p2/pool/plugins/org.eclipse.egit.doc_5.6.0.201912101111-r.jar
file:/C:/Users/limao/.p2/pool/plugins/org.eclipse.egit.mylyn.ui_5.6.0.201912101111-r.jar
file:/C:/Users/limao/.p2/pool/plugins/org.eclipse.egit.ui_5.6.0.201912101111-r.jar
file:/C:/Users/limao/.p2/pool/plugins/org.eclipse.emf_2.8.0.v20180706-1146.jar
file:/C:/Users/limao/.p2/pool/plugins/org.eclipse.emf.ant_2.11.0.v20190418-1022.jar
file:/C:/Users/limao/.p2/pool/plugins/org.eclipse.emf.codegen_2.19.0.v20190821-1536.jar
file:/C:/Users/limao/.p2/pool/plugins/org.eclipse.emf.codegen.ecore_2.20.0.v20191012-0918.jar
file:/C:/Users/limao/.p2/pool/plugins/org.eclipse.emf.codegen.ecore.ui_2.20.0.v20190919-0941.jar
file:/C:/Users/limao/.p2/pool/plugins/org.eclipse.emf.codegen.ui_2.20.0.v20191028-0905.jar
file:/C:/Users/limao/.p2/pool/plugins/org.eclipse.emf.common_2.17.0.v20190920-0401.jar
file:/C:/Users/limao/.p2/pool/plugins/org.eclipse.emf.common.ui_2.18.0.v20190507-0402.jar
file:/C:/Users/limao/.p2/pool/plugins/org.eclipse.emf.converter_2.10.0.v20180706-1146.jar
file:/C:/Users/limao/.p2/pool/plugins/org.eclipse.emf.databinding_1.5.0.v20180706-1146.jar
file:/C:/Users/limao/.p2/pool/plugins/org.eclipse.emf.databinding.edit_1.6.0.v20190323-1031.jar
file:/C:/Users/limao/.p2/pool/plugins/org.eclipse.emf.ecore_2.20.0.v20190920-0401.jar
file:/C:/Users/limao/.p2/pool/plugins/org.eclipse.emf.ecore.change_2.14.0.v20190528-0725.jar
file:/C:/Users/limao/.p2/pool/plugins/org.eclipse.emf.ecore.change.edit_2.8.0.v20180706-1146.jar
file:/C:/Users/limao/.p2/pool/plugins/org.eclipse.emf.ecore.edit_2.13.0.v20190822-1451.jar
file:/C:/Users/limao/.p2/pool/plugins/org.eclipse.emf.ecore.editor_2.17.0.v20190528-0725.jar
file:/C:/Users/limao/.p2/pool/plugins/org.eclipse.emf.ecore.xmi_2.16.0.v20190528-0725.jar
file:/C:/Users/limao/.p2/pool/plugins/org.eclipse.emf.edit_2.16.0.v20190920-0401.jar
file:/C:/Users/limao/.p2/pool/plugins/org.eclipse.emf.edit.ui_2.17.0.v20190920-0412.jar
file:/C:/Users/limao/.p2/pool/plugins/org.eclipse.emf.exporter_2.10.0.v20190321-1530.jar
file:/C:/Users/limao/.p2/pool/plugins/org.eclipse.emf.importer_2.12.0.v20190321-1539.jar
file:/C:/Users/limao/.p2/pool/plugins/org.eclipse.emf.importer.ecore_2.10.0.v20180706-1146.jar
file:/C:/Users/limao/.p2/pool/plugins/org.eclipse.emf.importer.java_2.11.0.v20190418-1022.jar
file:/C:/Users/limao/.p2/pool/plugins/org.eclipse.emf.importer.rose_2.10.0.v20180706-1146.jar
file:/C:/Users/limao/.p2/pool/plugins/org.eclipse.emf.mapping_2.12.0.v20181104-0733.jar
file:/C:/Users/limao/.p2/pool/plugins/org.eclipse.emf.mapping.ecore_2.8.0.v20180706-1146.jar
file:/C:/Users/limao/.p2/pool/plugins/org.eclipse.emf.mapping.ecore.editor_2.8.0.v20180706-1146.jar
file:/C:/Users/limao/.p2/pool/plugins/org.eclipse.emf.mapping.ecore2ecore_2.11.0.v20180706-1146.jar
file:/C:/Users/limao/.p2/pool/plugins/org.eclipse.emf.mapping.ecore2ecore.editor_2.10.0.v20181104-0733.jar
file:/C:/Users/limao/.p2/pool/plugins/org.eclipse.emf.mapping.ecore2xml_2.11.0.v20180706-1146.jar
file:/C:/Users/limao/.p2/pool/plugins/org.eclipse.emf.mapping.ecore2xml.ui_2.12.0.v20190528-0725.jar
file:/C:/Users/limao/.p2/pool/plugins/org.eclipse.emf.mapping.ui_2.10.0.v20181104-0733.jar
file:/C:/Users/limao/.p2/pool/plugins/org.eclipse.epp.logging.aeri.core_2.0.7.v20180504-0806.jar
file:/C:/Users/limao/.p2/pool/plugins/org.eclipse.epp.logging.aeri.ide_2.0.7.v20180504-0806.jar
file:/C:/Users/limao/.p2/pool/plugins/org.eclipse.epp.mpc.core_1.8.1.v20191106-1317.jar
file:/C:/Users/limao/.p2/pool/plugins/org.eclipse.epp.mpc.core.win32_1.8.1.v20191106-1317.jar
file:/C:/Users/limao/.p2/pool/plugins/org.eclipse.epp.mpc.help.ui_1.8.1.v20191106-1317.jar
file:/C:/Users/limao/.p2/pool/plugins/org.eclipse.epp.mpc.ui_1.8.1.v20191106-1317.jar
file:/C:/Users/limao/.p2/pool/plugins/org.eclipse.epp.mpc.ui.css_1.8.1.v20191106-1317.jar
file:/C:/Users/limao/.p2/pool/plugins/org.eclipse.epp.package.common_4.14.0.20191212-1200/
file:/C:/Users/limao/.p2/pool/plugins/org.eclipse.epp.package.jee_4.14.0.20191212-1200/
file:/C:/Users/limao/.p2/pool/plugins/org.eclipse.equinox.app_1.4.300.v20190815-1535.jar
file:/C:/Users/limao/.p2/pool/plugins/org.eclipse.equinox.bidi_1.2.200.v20191008-0718.jar
file:/C:/Users/limao/.p2/pool/plugins/org.eclipse.equinox.common_3.10.600.v20191004-1420.jar
file:/C:/Users/limao/.p2/pool/plugins/org.eclipse.equinox.concurrent_1.1.400.v20190621-0852.jar
file:/C:/Users/limao/.p2/pool/plugins/org.eclipse.equinox.console_1.4.0.v20190819-1430.jar
file:/C:/Users/limao/.p2/pool/plugins/org.eclipse.equinox.event_1.5.300.v20191001-1333.jar
file:/C:/Users/limao/.p2/pool/plugins/org.eclipse.equinox.frameworkadmin_2.1.400.v20191002-0702.jar
file:/C:/Users/limao/.p2/pool/plugins/org.eclipse.equinox.frameworkadmin.equinox_1.1.200.v20191015-1207.jar
file:/C:/Users/limao/.p2/pool/plugins/org.eclipse.equinox.http.jetty_3.7.300.v20191015-2006.jar
file:/C:/Users/limao/.p2/pool/plugins/org.eclipse.equinox.http.registry_1.1.700.v20190214-1948.jar
file:/C:/Users/limao/.p2/pool/plugins/org.eclipse.equinox.http.servlet_1.6.300.v20191011-1612.jar
file:/C:/Users/limao/.p2/pool/plugins/org.eclipse.equinox.jsp.jasper_1.1.300.v20190714-1850.jar
file:/C:/Users/limao/.p2/pool/plugins/org.eclipse.equinox.jsp.jasper.registry_1.1.300.v20190714-1850.jar
file:/C:/Users/limao/.p2/pool/plugins/org.eclipse.equinox.launcher_1.5.600.v20191014-2022.jar
file:/C:/Users/limao/.p2/pool/plugins/org.eclipse.equinox.launcher.win32.win32.x86_64_1.1.1100.v20190907-0426/
file:/C:/Users/limao/.p2/pool/plugins/org.eclipse.equinox.p2.artifact.repository_1.3.300.v20191015-1504.jar
file:/C:/Users/limao/.p2/pool/plugins/org.eclipse.equinox.p2.console_1.1.300.v20191014-1219.jar
file:/C:/Users/limao/.p2/pool/plugins/org.eclipse.equinox.p2.core_2.6.200.v20191014-1220.jar
file:/C:/Users/limao/.p2/pool/plugins/org.eclipse.equinox.p2.director_2.4.500.v20191014-1220.jar
file:/C:/Users/limao/.p2/pool/plugins/org.eclipse.equinox.p2.director.app_1.1.400.v20191015-1945.jar
file:/C:/Users/limao/.p2/pool/plugins/org.eclipse.equinox.p2.directorywatcher_1.2.400.v20191015-1945.jar
file:/C:/Users/limao/.p2/pool/plugins/org.eclipse.equinox.p2.discovery_1.1.200.v20190611-1008.jar
file:/C:/Users/limao/.p2/pool/plugins/org.eclipse.equinox.p2.discovery.compatibility_1.1.200.v20190611-1008.jar
file:/C:/Users/limao/.p2/pool/plugins/org.eclipse.equinox.p2.engine_2.6.500.v20191014-1645.jar
file:/C:/Users/limao/.p2/pool/plugins/org.eclipse.equinox.p2.extensionlocation_1.3.300.v20191014-1645.jar
file:/C:/Users/limao/.p2/pool/plugins/org.eclipse.equinox.p2.garbagecollector_1.1.300.v20191015-1207.jar
file:/C:/Users/limao/.p2/pool/plugins/org.eclipse.equinox.p2.jarprocessor_1.1.500.v20191014-1732.jar
file:/C:/Users/limao/.p2/pool/plugins/org.eclipse.equinox.p2.metadata_2.4.600.v20191002-0702.jar
file:/C:/Users/limao/.p2/pool/plugins/org.eclipse.equinox.p2.metadata.repository_1.3.300.v20191002-0702.jar
file:/C:/Users/limao/.p2/pool/plugins/org.eclipse.equinox.p2.operations_2.5.600.v20191016-0507.jar
file:/C:/Users/limao/.p2/pool/plugins/org.eclipse.equinox.p2.publisher_1.5.300.v20191016-0507.jar
file:/C:/Users/limao/.p2/pool/plugins/org.eclipse.equinox.p2.publisher.eclipse_1.3.400.v20191018-2256.jar
file:/C:/Users/limao/.p2/pool/plugins/org.eclipse.equinox.p2.reconciler.dropins_1.3.200.v20191016-0510.jar
file:/C:/Users/limao/.p2/pool/plugins/org.eclipse.equinox.p2.repository_2.4.600.v20191016-0510.jar
file:/C:/Users/limao/.p2/pool/plugins/org.eclipse.equinox.p2.repository.tools_2.2.400.v20191016-0510.jar
file:/C:/Users/limao/.p2/pool/plugins/org.eclipse.equinox.p2.touchpoint.eclipse_2.2.500.v20191114-1206.jar
file:/C:/Users/limao/.p2/pool/plugins/org.eclipse.equinox.p2.touchpoint.natives_1.3.400.v20191017-1917.jar
file:/C:/Users/limao/.p2/pool/plugins/org.eclipse.equinox.p2.transport.ecf_1.2.300.v20191001-0955.jar
file:/C:/Users/limao/.p2/pool/plugins/org.eclipse.equinox.p2.ui_2.5.700.v20190930-1517.jar
file:/C:/Users/limao/.p2/pool/plugins/org.eclipse.equinox.p2.ui.discovery_1.1.300.v20191014-1907.jar
file:/C:/Users/limao/.p2/pool/plugins/org.eclipse.equinox.p2.ui.importexport_1.2.400.v20191016-0512.jar
file:/C:/Users/limao/.p2/pool/plugins/org.eclipse.equinox.p2.ui.sdk_1.1.500.v20191016-0512.jar
file:/C:/Users/limao/.p2/pool/plugins/org.eclipse.equinox.p2.ui.sdk.scheduler_1.4.500.v20191016-0512.jar
file:/C:/Users/limao/.p2/pool/plugins/org.eclipse.equinox.p2.updatechecker_1.2.200.v20190701-1309.jar
file:/C:/Users/limao/.p2/pool/plugins/org.eclipse.equinox.p2.updatesite_1.1.300.v20191016-0515.jar
file:/C:/Users/limao/.p2/pool/plugins/org.eclipse.equinox.preferences_3.7.600.v20191017-2055.jar
file:/C:/Users/limao/.p2/pool/plugins/org.eclipse.equinox.registry_3.8.600.v20191017-2055.jar
file:/C:/Users/limao/.p2/pool/plugins/org.eclipse.equinox.security_1.3.400.v20191008-0645.jar
file:/C:/Users/limao/.p2/pool/plugins/org.eclipse.equinox.security.ui_1.2.500.v20191003-0536.jar
file:/C:/Users/limao/.p2/pool/plugins/org.eclipse.equinox.security.win32.x86_64_1.1.200.v20190812-0919.jar
file:/C:/Users/limao/.p2/pool/plugins/org.eclipse.equinox.simpleconfigurator_1.3.400.v20191015-1836.jar
file:/C:/Users/limao/.p2/pool/plugins/org.eclipse.equinox.simpleconfigurator.manipulator_2.1.400.v20191015-1836.jar
file:/C:/Users/limao/.p2/pool/plugins/org.eclipse.gef_3.11.0.201606061308.jar
file:/C:/Users/limao/.p2/pool/plugins/org.eclipse.help_3.8.600.v20191123-0656.jar
file:/C:/Users/limao/.p2/pool/plugins/org.eclipse.help.base_4.2.800.v20191210-0610.jar
file:/C:/Users/limao/.p2/pool/plugins/org.eclipse.help.ui_4.1.700.v20191123-0656.jar
file:/C:/Users/limao/.p2/pool/plugins/org.eclipse.help.webapp_3.9.700.v20191123-0656.jar
file:/C:/Users/limao/.p2/pool/plugins/org.eclipse.jdt_3.18.200.v20191210-0610.jar
file:/C:/Users/limao/.p2/pool/plugins/org.eclipse.jdt.annotation_2.2.400.v20191120-1313.jar
file:/C:/Users/limao/.p2/pool/plugins/org.eclipse.jdt.annotation_1.1.400.v20180921-1416.jar
file:/C:/Users/limao/.p2/pool/plugins/org.eclipse.jdt.apt.core_3.6.550.v20190919-0948.jar
file:/C:/Users/limao/.p2/pool/plugins/org.eclipse.jdt.apt.pluggable.core_1.2.400.v20190626-1334.jar
file:/C:/Users/limao/.p2/pool/plugins/org.eclipse.jdt.apt.ui_3.6.300.v20190727-1243.jar
file:/C:/Users/limao/.p2/pool/plugins/org.eclipse.jdt.compiler.apt_1.3.800.v20190919-0948.jar
file:/C:/Users/limao/.p2/pool/plugins/org.eclipse.jdt.compiler.tool_1.2.700.v20191001-0515.jar
file:/C:/Users/limao/.p2/pool/plugins/org.eclipse.jdt.core_3.20.0.v20191203-2131.jar
file:/C:/Users/limao/.p2/pool/plugins/org.eclipse.jdt.core.manipulation_1.13.0.v20191203-0859.jar
file:/C:/Users/limao/.p2/pool/plugins/org.eclipse.jdt.debug_3.14.0.v20191105-0758/
file:/C:/Users/limao/.p2/pool/plugins/org.eclipse.jdt.debug.ui_3.10.500.v20191130-0156.jar
file:/C:/Users/limao/.p2/pool/plugins/org.eclipse.jdt.doc.user_3.15.500.v20191204-0828.jar
file:/C:/Users/limao/.p2/pool/plugins/org.eclipse.jdt.junit_3.11.600.v20191115-1651.jar
file:/C:/Users/limao/.p2/pool/plugins/org.eclipse.jdt.junit.core_3.10.500.v20191115-1651.jar
file:/C:/Users/limao/.p2/pool/plugins/org.eclipse.jdt.junit.runtime_3.5.0.v20191115-1651.jar
file:/C:/Users/limao/.p2/pool/plugins/org.eclipse.jdt.junit4.runtime_1.1.1100.v20191009-0503.jar
file:/C:/Users/limao/.p2/pool/plugins/org.eclipse.jdt.junit5.runtime_1.0.700.v20191009-0503.jar
file:/C:/Users/limao/.p2/pool/plugins/org.eclipse.jdt.launching_3.16.0.v20191108-0353.jar
file:/C:/Users/limao/.p2/pool/plugins/org.eclipse.jdt.ui_3.20.0.v20191203-1301.jar
file:/C:/Users/limao/.p2/pool/plugins/org.eclipse.jem_2.0.600.v201903222024.jar
file:/C:/Users/limao/.p2/pool/plugins/org.eclipse.jem.beaninfo_2.0.300.v201903222024.jar
file:/C:/Users/limao/.p2/pool/plugins/org.eclipse.jem.beaninfo.vm_2.0.300.v201903222024.jar
file:/C:/Users/limao/.p2/pool/plugins/org.eclipse.jem.beaninfo.vm.common_2.0.300.v201903222024.jar
file:/C:/Users/limao/.p2/pool/plugins/org.eclipse.jem.proxy_2.0.500.v201903222024.jar
file:/C:/Users/limao/.p2/pool/plugins/org.eclipse.jem.util_2.1.201.v201903222010.jar
file:/C:/Users/limao/.p2/pool/plugins/org.eclipse.jem.workbench_2.0.400.v201903222024.jar
file:/C:/Users/limao/.p2/pool/plugins/org.eclipse.jetty.continuation_9.4.24.v20191120.jar
file:/C:/Users/limao/.p2/pool/plugins/org.eclipse.jetty.http_9.4.24.v20191120.jar
file:/C:/Users/limao/.p2/pool/plugins/org.eclipse.jetty.io_9.4.24.v20191120.jar
file:/C:/Users/limao/.p2/pool/plugins/org.eclipse.jetty.security_9.4.24.v20191120.jar
file:/C:/Users/limao/.p2/pool/plugins/org.eclipse.jetty.server_9.4.24.v20191120.jar
file:/C:/Users/limao/.p2/pool/plugins/org.eclipse.jetty.servlet_9.4.24.v20191120.jar
file:/C:/Users/limao/.p2/pool/plugins/org.eclipse.jetty.util_9.4.24.v20191120.jar
file:/C:/Users/limao/.p2/pool/plugins/org.eclipse.jetty.webapp_9.4.24.v20191120.jar
file:/C:/Users/limao/.p2/pool/plugins/org.eclipse.jetty.xml_9.4.24.v20191120.jar
file:/C:/Users/limao/.p2/pool/plugins/org.eclipse.jface_3.18.0.v20191122-2109.jar
file:/C:/Users/limao/.p2/pool/plugins/org.eclipse.jface.databinding_1.9.200.v20191113-1050.jar
file:/C:/Users/limao/.p2/pool/plugins/org.eclipse.jface.text_3.16.100.v20191203-1634.jar
file:/C:/Users/limao/.p2/pool/plugins/org.eclipse.jgit_5.6.0.201912101111-r.jar
file:/C:/Users/limao/.p2/pool/plugins/org.eclipse.jgit.archive_5.6.0.201912101111-r.jar
file:/C:/Users/limao/.p2/pool/plugins/org.eclipse.jgit.http.apache_5.6.0.201912101111-r.jar
file:/C:/Users/limao/.p2/pool/plugins/org.eclipse.jgit.ssh.apache_5.6.0.201912101111-r.jar
file:/C:/Users/limao/.p2/pool/plugins/org.eclipse.jpt.common.branding_1.4.1.v201902121834.jar
file:/C:/Users/limao/.p2/pool/plugins/org.eclipse.jpt.common.core_1.5.1.v201902121834.jar
file:/C:/Users/limao/.p2/pool/plugins/org.eclipse.jpt.common.eclipselink.branding_1.3.101.v201902121834.jar
file:/C:/Users/limao/.p2/pool/plugins/org.eclipse.jpt.common.eclipselink.core_1.3.201.v201902121834.jar
file:/C:/Users/limao/.p2/pool/plugins/org.eclipse.jpt.common.ui_1.4.201.v201902121834.jar
file:/C:/Users/limao/.p2/pool/plugins/org.eclipse.jpt.common.utility_2.4.1.v201902121834.jar
file:/C:/Users/limao/.p2/pool/plugins/org.eclipse.jpt.doc.user_3.2.101.v201902121834.jar
file:/C:/Users/limao/.p2/pool/plugins/org.eclipse.jpt.jaxb.branding_1.4.1.v201902121834.jar
file:/C:/Users/limao/.p2/pool/plugins/org.eclipse.jpt.jaxb.core_1.4.101.v201902121834.jar
file:/C:/Users/limao/.p2/pool/plugins/org.eclipse.jpt.jaxb.core.schemagen_1.1.201.v201902121834.jar
file:/C:/Users/limao/.p2/pool/plugins/org.eclipse.jpt.jaxb.eclipselink.branding_1.4.101.v201902121834.jar
file:/C:/Users/limao/.p2/pool/plugins/org.eclipse.jpt.jaxb.eclipselink.core_1.3.201.v201902121834.jar
file:/C:/Users/limao/.p2/pool/plugins/org.eclipse.jpt.jaxb.eclipselink.core.schemagen_1.2.201.v201902121834.jar
file:/C:/Users/limao/.p2/pool/plugins/org.eclipse.jpt.jaxb.eclipselink.ui_1.4.201.v201902121834.jar
file:/C:/Users/limao/.p2/pool/plugins/org.eclipse.jpt.jaxb.ui_1.5.101.v201902121834.jar
file:/C:/Users/limao/.p2/pool/plugins/org.eclipse.jpt.jpa.annotate_1.0.101.v201902121834.jar
file:/C:/Users/limao/.p2/pool/plugins/org.eclipse.jpt.jpa.branding_3.4.1.v201902121834.jar
file:/C:/Users/limao/.p2/pool/plugins/org.eclipse.jpt.jpa.core_3.5.1.v201902121834.jar
file:/C:/Users/limao/.p2/pool/plugins/org.eclipse.jpt.jpa.db_2.2.201.v201902121834.jar
file:/C:/Users/limao/.p2/pool/plugins/org.eclipse.jpt.jpa.db.ui_2.1.201.v201902121834.jar
file:/C:/Users/limao/.p2/pool/plugins/org.eclipse.jpt.jpa.eclipselink.branding_3.4.1.v201902121834.jar
file:/C:/Users/limao/.p2/pool/plugins/org.eclipse.jpt.jpa.eclipselink.core_2.4.101.v201902121834.jar
file:/C:/Users/limao/.p2/pool/plugins/org.eclipse.jpt.jpa.eclipselink.core.ddlgen_2.2.201.v201902121834.jar
file:/C:/Users/limao/.p2/pool/plugins/org.eclipse.jpt.jpa.eclipselink.ui_2.4.101.v201902121834.jar
file:/C:/Users/limao/.p2/pool/plugins/org.eclipse.jpt.jpa.gen_2.3.201.v201902121834.jar
file:/C:/Users/limao/.p2/pool/plugins/org.eclipse.jpt.jpa.ui_3.4.201.v201902121834.jar
file:/C:/Users/limao/.p2/pool/plugins/org.eclipse.jsch.core_1.3.700.v20190925-1021.jar
file:/C:/Users/limao/.p2/pool/plugins/org.eclipse.jsch.ui_1.3.700.v20191105-0922.jar
file:/C:/Users/limao/.p2/pool/plugins/org.eclipse.jsf.branding_3.5.1.v201902121810.jar
file:/C:/Users/limao/.p2/pool/plugins/org.eclipse.json_1.1.100.v201901071922.jar
file:/C:/Users/limao/.p2/pool/plugins/org.eclipse.jst.common.annotations.controller_1.1.300.v201903222024.jar
file:/C:/Users/limao/.p2/pool/plugins/org.eclipse.jst.common.annotations.core_1.1.300.v201903222024.jar
file:/C:/Users/limao/.p2/pool/plugins/org.eclipse.jst.common.annotations.ui_1.1.300.v201903222024.jar
file:/C:/Users/limao/.p2/pool/plugins/org.eclipse.jst.common.frameworks_1.1.701.v201903222024.jar
file:/C:/Users/limao/.p2/pool/plugins/org.eclipse.jst.common.project.facet.core_1.8.0.v201906031755.jar
file:/C:/Users/limao/.p2/pool/plugins/org.eclipse.jst.common.project.facet.ui_1.4.510.v201903222010.jar
file:/C:/Users/limao/.p2/pool/plugins/org.eclipse.jst.common.ui_1.0.301.v201903222024.jar
file:/C:/Users/limao/.p2/pool/plugins/org.eclipse.jst.ejb.doc.user_1.1.301.v201903222024.jar
file:/C:/Users/limao/.p2/pool/plugins/org.eclipse.jst.ejb.ui_1.1.911.v201903222024.jar
file:/C:/Users/limao/.p2/pool/plugins/org.eclipse.jst.ejb.ui.infopop_1.0.300.v201903222024.jar
file:/C:/Users/limao/.p2/pool/plugins/org.eclipse.jst.j2ee_1.2.301.v201903222025.jar
file:/C:/Users/limao/.p2/pool/plugins/org.eclipse.jst.j2ee.core_1.4.1.v201903222024.jar
file:/C:/Users/limao/.p2/pool/plugins/org.eclipse.jst.j2ee.doc.user_1.1.400.v201903222024.jar
file:/C:/Users/limao/.p2/pool/plugins/org.eclipse.jst.j2ee.ejb_1.1.901.v201903222024.jar
file:/C:/Users/limao/.p2/pool/plugins/org.eclipse.jst.j2ee.ejb.annotation.model_1.1.500.v201910291429.jar
file:/C:/Users/limao/.p2/pool/plugins/org.eclipse.jst.j2ee.ejb.annotations.emitter_1.1.300.v201903222024.jar
file:/C:/Users/limao/.p2/pool/plugins/org.eclipse.jst.j2ee.ejb.annotations.ui_1.1.400.v201910291429.jar
file:/C:/Users/limao/.p2/pool/plugins/org.eclipse.jst.j2ee.ejb.annotations.xdoclet_1.2.300.v201903222024.jar
file:/C:/Users/limao/.p2/pool/plugins/org.eclipse.jst.j2ee.infopop_1.0.300.v201903222024.jar
file:/C:/Users/limao/.p2/pool/plugins/org.eclipse.jst.j2ee.jca_1.1.1000.v201904091346.jar
file:/C:/Users/limao/.p2/pool/plugins/org.eclipse.jst.j2ee.jca.ui_1.1.601.v201904091346.jar
file:/C:/Users/limao/.p2/pool/plugins/org.eclipse.jst.j2ee.navigator.ui_1.1.700.v201903222024.jar
file:/C:/Users/limao/.p2/pool/plugins/org.eclipse.jst.j2ee.ui_1.1.931.v201903222025.jar
file:/C:/Users/limao/.p2/pool/plugins/org.eclipse.jst.j2ee.web_1.1.911.v201903222025.jar
file:/C:/Users/limao/.p2/pool/plugins/org.eclipse.jst.j2ee.webservice_1.1.700.v201904091346.jar
file:/C:/Users/limao/.p2/pool/plugins/org.eclipse.jst.j2ee.webservice.ui_1.1.700.v201903222025.jar
file:/C:/Users/limao/.p2/pool/plugins/org.eclipse.jst.j2ee.xdoclet.runtime_1.1.300.v201903222025.jar
file:/C:/Users/limao/.p2/pool/plugins/org.eclipse.jst.jee_1.0.902.v201905281719.jar
file:/C:/Users/limao/.p2/pool/plugins/org.eclipse.jst.jee.ejb_1.0.500.v201903222025.jar
file:/C:/Users/limao/.p2/pool/plugins/org.eclipse.jst.jee.ui_1.0.901.v201903222025.jar
file:/C:/Users/limao/.p2/pool/plugins/org.eclipse.jst.jee.web_1.0.701.v201903222025.jar
file:/C:/Users/limao/.p2/pool/plugins/org.eclipse.jst.jsf.apache.trinidad.tagsupport_1.4.1.v201902121810.jar
file:/C:/Users/limao/.p2/pool/plugins/org.eclipse.jst.jsf.common_1.5.103.v201902121810.jar
file:/C:/Users/limao/.p2/pool/plugins/org.eclipse.jst.jsf.common.runtime_1.4.1.v201902121810.jar
file:/C:/Users/limao/.p2/pool/plugins/org.eclipse.jst.jsf.common.ui_1.5.101.v201902121810.jar
file:/C:/Users/limao/.p2/pool/plugins/org.eclipse.jst.jsf.core_1.8.2.v201902121810.jar
file:/C:/Users/limao/.p2/pool/plugins/org.eclipse.jst.jsf.doc.user_1.5.0.v201902121810.jar
file:/C:/Users/limao/.p2/pool/plugins/org.eclipse.jst.jsf.facelet.core_1.4.2.v201902121810.jar
file:/C:/Users/limao/.p2/pool/plugins/org.eclipse.jst.jsf.facelet.ui_1.3.112.v201902121810.jar
file:/C:/Users/limao/.p2/pool/plugins/org.eclipse.jst.jsf.facesconfig_1.5.102.v201902121810.jar
file:/C:/Users/limao/.p2/pool/plugins/org.eclipse.jst.jsf.facesconfig.ui_1.5.2.v201902121810.jar
file:/C:/Users/limao/.p2/pool/plugins/org.eclipse.jst.jsf.standard.tagsupport_1.5.1.v201902121810.jar
file:/C:/Users/limao/.p2/pool/plugins/org.eclipse.jst.jsf.ui_1.6.102.v201902121810.jar
file:/C:/Users/limao/.p2/pool/plugins/org.eclipse.jst.jsp.core_1.3.0.v201903222120.jar
file:/C:/Users/limao/.p2/pool/plugins/org.eclipse.jst.jsp.ui_1.2.200.v201904272124.jar
file:/C:/Users/limao/.p2/pool/plugins/org.eclipse.jst.jsp.ui.infopop_1.0.200.v201903222120.jar
file:/C:/Users/limao/.p2/pool/plugins/org.eclipse.jst.pagedesigner_1.8.2.v201902121810.jar
file:/C:/Users/limao/.p2/pool/plugins/org.eclipse.jst.pagedesigner.jsf.ui_1.5.2.v201902121810.jar
file:/C:/Users/limao/.p2/pool/plugins/org.eclipse.jst.pagedesigner.jsp.core_1.5.102.v201902121810.jar
file:/C:/Users/limao/.p2/pool/plugins/org.eclipse.jst.server.core_1.2.600.v201910252115.jar
file:/C:/Users/limao/.p2/pool/plugins/org.eclipse.jst.server.generic.core_1.0.1000.v201910252115.jar
file:/C:/Users/limao/.p2/pool/plugins/org.eclipse.jst.server.generic.jonas_1.5.600.v201910252115.jar
file:/C:/Users/limao/.p2/pool/plugins/org.eclipse.jst.server.generic.ui_1.0.700.v201910252115.jar
file:/C:/Users/limao/.p2/pool/plugins/org.eclipse.jst.server.preview.adapter_1.1.600.v201910252115.jar
file:/C:/Users/limao/.p2/pool/plugins/org.eclipse.jst.server.tomcat.core_1.1.1000.v201910252115.jar
file:/C:/Users/limao/.p2/pool/plugins/org.eclipse.jst.server.tomcat.ui_1.1.700.v201910252115.jar
file:/C:/Users/limao/.p2/pool/plugins/org.eclipse.jst.server.ui_1.1.400.v201910252115.jar
file:/C:/Users/limao/.p2/pool/plugins/org.eclipse.jst.server.ui.doc.user_1.0.600.v201901310132.jar
file:/C:/Users/limao/.p2/pool/plugins/org.eclipse.jst.server.ui.infopop_1.0.500.v201901310132.jar
file:/C:/Users/limao/.p2/pool/plugins/org.eclipse.jst.servlet.ui_1.1.921.v201903222025.jar
file:/C:/Users/limao/.p2/pool/plugins/org.eclipse.jst.servlet.ui.infopop_1.0.500.v201903222024.jar
file:/C:/Users/limao/.p2/pool/plugins/org.eclipse.jst.standard.schemas_1.2.300.v201903222120.jar
file:/C:/Users/limao/.p2/pool/plugins/org.eclipse.jst.ws_1.0.900.v201910301957.jar
file:/C:/Users/limao/.p2/pool/plugins/org.eclipse.jst.ws.annotations.core_1.2.200.v201902162033.jar
file:/C:/Users/limao/.p2/pool/plugins/org.eclipse.jst.ws.axis.consumption.core_1.0.600.v201910301957.jar
file:/C:/Users/limao/.p2/pool/plugins/org.eclipse.jst.ws.axis.consumption.ui_1.0.1000.v201910301957.jar
file:/C:/Users/limao/.p2/pool/plugins/org.eclipse.jst.ws.axis.creation.ui_1.0.1000.v201910301957.jar
file:/C:/Users/limao/.p2/pool/plugins/org.eclipse.jst.ws.axis.infopop_1.0.400.v201903050508.jar
file:/C:/Users/limao/.p2/pool/plugins/org.eclipse.jst.ws.axis.ui.doc.user_1.1.200.v201903222115.jar
file:/C:/Users/limao/.p2/pool/plugins/org.eclipse.jst.ws.axis2.consumption.core_1.0.200.v201903050508.jar
file:/C:/Users/limao/.p2/pool/plugins/org.eclipse.jst.ws.axis2.consumption.ui_1.0.200.v201903050508.jar
file:/C:/Users/limao/.p2/pool/plugins/org.eclipse.jst.ws.axis2.core_1.0.300.v201903050508.jar
file:/C:/Users/limao/.p2/pool/plugins/org.eclipse.jst.ws.axis2.creation.core_1.0.200.v201903050508.jar
file:/C:/Users/limao/.p2/pool/plugins/org.eclipse.jst.ws.axis2.creation.ui_1.0.200.v201903050508.jar
file:/C:/Users/limao/.p2/pool/plugins/org.eclipse.jst.ws.axis2.ui_1.0.400.v201903050508.jar
file:/C:/Users/limao/.p2/pool/plugins/org.eclipse.jst.ws.axis2.ui.doc.user_1.0.200.v201903222115.jar
file:/C:/Users/limao/.p2/pool/plugins/org.eclipse.jst.ws.consumption_1.0.1400.v201910301957.jar
file:/C:/Users/limao/.p2/pool/plugins/org.eclipse.jst.ws.consumption.infopop_1.0.400.v201903050508.jar
file:/C:/Users/limao/.p2/pool/plugins/org.eclipse.jst.ws.consumption.ui_1.1.1000.v201910301957.jar
file:/C:/Users/limao/.p2/pool/plugins/org.eclipse.jst.ws.consumption.ui.doc.user_1.0.700.v201903222115.jar
file:/C:/Users/limao/.p2/pool/plugins/org.eclipse.jst.ws.creation.ejb.ui_1.0.300.v201910301957.jar
file:/C:/Users/limao/.p2/pool/plugins/org.eclipse.jst.ws.creation.ui_1.0.1000.v201910301957.jar
file:/C:/Users/limao/.p2/pool/plugins/org.eclipse.jst.ws.cxf.consumption.core_1.0.400.v201902162149.jar
file:/C:/Users/limao/.p2/pool/plugins/org.eclipse.jst.ws.cxf.consumption.ui_1.0.500.v201910301957.jar
file:/C:/Users/limao/.p2/pool/plugins/org.eclipse.jst.ws.cxf.core_1.1.400.v201910301957.jar
file:/C:/Users/limao/.p2/pool/plugins/org.eclipse.jst.ws.cxf.creation.core_1.0.500.v201902162149.jar
file:/C:/Users/limao/.p2/pool/plugins/org.eclipse.jst.ws.cxf.creation.ui_1.0.400.v201910301957.jar
file:/C:/Users/limao/.p2/pool/plugins/org.eclipse.jst.ws.cxf.doc.user_1.0.300.v201902162149.jar
file:/C:/Users/limao/.p2/pool/plugins/org.eclipse.jst.ws.cxf.ui_1.0.400.v201910301957.jar
file:/C:/Users/limao/.p2/pool/plugins/org.eclipse.jst.ws.doc.user_1.0.700.v201903222115.jar
file:/C:/Users/limao/.p2/pool/plugins/org.eclipse.jst.ws.infopop_1.0.400.v201903050508.jar
file:/C:/Users/limao/.p2/pool/plugins/org.eclipse.jst.ws.jaxb.core_1.0.200.v201902162203.jar
file:/C:/Users/limao/.p2/pool/plugins/org.eclipse.jst.ws.jaxrs.core_1.0.850.v201903050508.jar
file:/C:/Users/limao/.p2/pool/plugins/org.eclipse.jst.ws.jaxrs.ui_1.0.801.v201906251834.jar
file:/C:/Users/limao/.p2/pool/plugins/org.eclipse.jst.ws.jaxws.core_1.0.501.v201902162203.jar
file:/C:/Users/limao/.p2/pool/plugins/org.eclipse.jst.ws.jaxws.doc.user_1.0.400.v201902162216.jar
file:/C:/Users/limao/.p2/pool/plugins/org.eclipse.jst.ws.jaxws.dom.integration_1.0.301.v201902162216.jar
file:/C:/Users/limao/.p2/pool/plugins/org.eclipse.jst.ws.jaxws.dom.runtime_1.0.301.v201902162228.jar
file:/C:/Users/limao/.p2/pool/plugins/org.eclipse.jst.ws.jaxws.dom.ui_1.0.101.v201902162239.jar
file:/C:/Users/limao/.p2/pool/plugins/org.eclipse.jst.ws.jaxws.ui_1.0.500.v201902162239.jar
file:/C:/Users/limao/.p2/pool/plugins/org.eclipse.jst.ws.jaxws.utils_1.0.302.v201902162239.jar
file:/C:/Users/limao/.p2/pool/plugins/org.eclipse.jst.ws.uddiregistry_1.1.0.v201910301957.jar
file:/C:/Users/limao/.p2/pool/plugins/org.eclipse.jst.ws.ui_1.1.0.v201910301957.jar
file:/C:/Users/limao/.p2/pool/plugins/org.eclipse.ltk.core.refactoring_3.10.300.v20191104-1954.jar
file:/C:/Users/limao/.p2/pool/plugins/org.eclipse.ltk.ui.refactoring_3.10.100.v20191113-0119.jar
file:/C:/Users/limao/.p2/pool/plugins/org.eclipse.m2e.archetype.common_1.14.0.20191209-1923/
file:/C:/Users/limao/.p2/pool/plugins/org.eclipse.m2e.binaryproject_1.14.0.20191209-1925.jar
file:/C:/Users/limao/.p2/pool/plugins/org.eclipse.m2e.binaryproject.ui_1.14.0.20191209-1925.jar
file:/C:/Users/limao/.p2/pool/plugins/org.eclipse.m2e.core_1.14.0.20191209-1925.jar
file:/C:/Users/limao/.p2/pool/plugins/org.eclipse.m2e.core.ui_1.14.0.20191209-1925.jar
file:/C:/Users/limao/.p2/pool/plugins/org.eclipse.m2e.discovery_1.14.0.20191209-1925.jar
file:/C:/Users/limao/.p2/pool/plugins/org.eclipse.m2e.editor_1.14.0.20191209-1925.jar
file:/C:/Users/limao/.p2/pool/plugins/org.eclipse.m2e.editor.xml_1.14.0.20191209-1925.jar
file:/C:/Users/limao/.p2/pool/plugins/org.eclipse.m2e.importer_1.14.0.20191209-1925.jar
file:/C:/Users/limao/.p2/pool/plugins/org.eclipse.m2e.jdt_1.14.0.20191209-1925.jar
file:/C:/Users/limao/.p2/pool/plugins/org.eclipse.m2e.jdt.ui_1.14.0.20191209-1925.jar
file:/C:/Users/limao/.p2/pool/plugins/org.eclipse.m2e.launching_1.14.0.20191209-1925.jar
file:/C:/Users/limao/.p2/pool/plugins/org.eclipse.m2e.lifecyclemapping.defaults_1.14.0.20191209-1925.jar
file:/C:/Users/limao/.p2/pool/plugins/org.eclipse.m2e.logback.appender_1.14.0.20191209-1925.jar
file:/C:/Users/limao/.p2/pool/plugins/org.eclipse.m2e.logback.configuration_1.14.0.20191209-1925.jar
file:/C:/Users/limao/.p2/pool/plugins/org.eclipse.m2e.maven.indexer_1.14.0.20191209-1923/
file:/C:/Users/limao/.p2/pool/plugins/org.eclipse.m2e.maven.runtime_1.14.0.20191209-1923/
file:/C:/Users/limao/.p2/pool/plugins/org.eclipse.m2e.maven.runtime.slf4j.simple_1.14.0.20191209-1923/
file:/C:/Users/limao/.p2/pool/plugins/org.eclipse.m2e.model.edit_1.14.0.20191209-1925.jar
file:/C:/Users/limao/.p2/pool/plugins/org.eclipse.m2e.profiles.core_1.14.0.20191209-1925.jar
file:/C:/Users/limao/.p2/pool/plugins/org.eclipse.m2e.profiles.ui_1.14.0.20191209-1925.jar
file:/C:/Users/limao/.p2/pool/plugins/org.eclipse.m2e.refactoring_1.14.0.20191209-1925.jar
file:/C:/Users/limao/.p2/pool/plugins/org.eclipse.m2e.scm_1.14.0.20191209-1925.jar
file:/C:/Users/limao/.p2/pool/plugins/org.eclipse.m2e.sourcelookup_1.14.0.20191209-1925/
file:/C:/Users/limao/.p2/pool/plugins/org.eclipse.m2e.sourcelookup.ui_1.14.0.20191209-1925.jar
file:/C:/Users/limao/.p2/pool/plugins/org.eclipse.m2e.workspace.cli_0.3.1.jar
file:/C:/Users/limao/.p2/pool/plugins/org.eclipse.m2e.wtp_1.4.3.20191209-1849.jar
file:/C:/Users/limao/.p2/pool/plugins/org.eclipse.m2e.wtp.jaxrs_1.4.3.20191209-1849.jar
file:/C:/Users/limao/.p2/pool/plugins/org.eclipse.m2e.wtp.jpa_1.4.3.20191209-1849.jar
file:/C:/Users/limao/.p2/pool/plugins/org.eclipse.m2e.wtp.jsf_1.4.3.20191209-1849.jar
file:/C:/Users/limao/.p2/pool/plugins/org.eclipse.m2e.wtp.overlay_1.4.3.20191209-1849.jar
file:/C:/Users/limao/.p2/pool/plugins/org.eclipse.m2e.wtp.overlay.ui_1.4.3.20191209-1849.jar
file:/C:/Users/limao/.p2/pool/plugins/org.eclipse.mylyn.bugzilla.core_3.24.2.v20180905-0003.jar
file:/C:/Users/limao/.p2/pool/plugins/org.eclipse.mylyn.bugzilla.ide_3.24.2.v20180905-0014.jar
file:/C:/Users/limao/.p2/pool/plugins/org.eclipse.mylyn.bugzilla.ui_3.24.2.v20180905-0003.jar
file:/C:/Users/limao/.p2/pool/plugins/org.eclipse.mylyn.commons.core_3.24.2.v20180904-2231.jar
file:/C:/Users/limao/.p2/pool/plugins/org.eclipse.mylyn.commons.identity.core_1.16.0.v20180904-2231.jar
file:/C:/Users/limao/.p2/pool/plugins/org.eclipse.mylyn.commons.net_3.24.2.v20180904-2231.jar
file:/C:/Users/limao/.p2/pool/plugins/org.eclipse.mylyn.commons.notifications.core_1.16.0.v20180904-2231.jar
file:/C:/Users/limao/.p2/pool/plugins/org.eclipse.mylyn.commons.notifications.feed_1.16.0.v20180904-2231.jar
file:/C:/Users/limao/.p2/pool/plugins/org.eclipse.mylyn.commons.notifications.ui_1.16.0.v20180904-2231.jar
file:/C:/Users/limao/.p2/pool/plugins/org.eclipse.mylyn.commons.repositories.core_1.16.0.v20180904-2231.jar
file:/C:/Users/limao/.p2/pool/plugins/org.eclipse.mylyn.commons.repositories.ui_1.16.0.v20180904-2231.jar
file:/C:/Users/limao/.p2/pool/plugins/org.eclipse.mylyn.commons.screenshots_3.24.2.v20180904-2231.jar
file:/C:/Users/limao/.p2/pool/plugins/org.eclipse.mylyn.commons.ui_3.24.2.v20180904-2231.jar
file:/C:/Users/limao/.p2/pool/plugins/org.eclipse.mylyn.commons.workbench_3.24.2.v20180904-2231.jar
file:/C:/Users/limao/.p2/pool/plugins/org.eclipse.mylyn.commons.xmlrpc_3.24.2.v20180904-2231.jar
file:/C:/Users/limao/.p2/pool/plugins/org.eclipse.mylyn.context.core_3.24.2.v20180905-0014.jar
file:/C:/Users/limao/.p2/pool/plugins/org.eclipse.mylyn.context.tasks.ui_3.24.2.v20180905-0014.jar
file:/C:/Users/limao/.p2/pool/plugins/org.eclipse.mylyn.context.ui_3.24.2.v20180905-0014.jar
file:/C:/Users/limao/.p2/pool/plugins/org.eclipse.mylyn.debug.ui_3.24.2.v20180905-0014.jar
file:/C:/Users/limao/.p2/pool/plugins/org.eclipse.mylyn.discovery.core_3.24.2.v20180904-2231.jar
file:/C:/Users/limao/.p2/pool/plugins/org.eclipse.mylyn.discovery.ui_3.24.2.v20180904-2231.jar
file:/C:/Users/limao/.p2/pool/plugins/org.eclipse.mylyn.help.ui_3.24.2.v20180905-0003.jar
file:/C:/Users/limao/.p2/pool/plugins/org.eclipse.mylyn.ide.ant_3.24.2.v20180905-0014.jar
file:/C:/Users/limao/.p2/pool/plugins/org.eclipse.mylyn.ide.ui_3.24.2.v20180905-0014.jar
file:/C:/Users/limao/.p2/pool/plugins/org.eclipse.mylyn.java.tasks_3.24.2.v20180905-0014.jar
file:/C:/Users/limao/.p2/pool/plugins/org.eclipse.mylyn.java.ui_3.24.2.v20180905-0014.jar
file:/C:/Users/limao/.p2/pool/plugins/org.eclipse.mylyn.monitor.core_3.24.2.v20180904-2231.jar
file:/C:/Users/limao/.p2/pool/plugins/org.eclipse.mylyn.monitor.ui_3.24.2.v20180904-2231.jar
file:/C:/Users/limao/.p2/pool/plugins/org.eclipse.mylyn.resources.ui_3.24.2.v20180905-0014.jar
file:/C:/Users/limao/.p2/pool/plugins/org.eclipse.mylyn.tasks.bugs_3.24.2.v20180905-0003.jar
file:/C:/Users/limao/.p2/pool/plugins/org.eclipse.mylyn.tasks.core_3.24.2.v20180905-0003.jar
file:/C:/Users/limao/.p2/pool/plugins/org.eclipse.mylyn.tasks.index.core_3.24.2.v20180905-0003.jar
file:/C:/Users/limao/.p2/pool/plugins/org.eclipse.mylyn.tasks.index.ui_3.24.2.v20180905-0003.jar
file:/C:/Users/limao/.p2/pool/plugins/org.eclipse.mylyn.tasks.search_3.24.2.v20180905-0003.jar
file:/C:/Users/limao/.p2/pool/plugins/org.eclipse.mylyn.tasks.ui_3.24.2.v20180905-0003.jar
file:/C:/Users/limao/.p2/pool/plugins/org.eclipse.mylyn.team.ui_3.24.2.v20180905-0014.jar
file:/C:/Users/limao/.p2/pool/plugins/org.eclipse.mylyn.wikitext_3.0.35.20191206145759.jar
file:/C:/Users/limao/.p2/pool/plugins/org.eclipse.mylyn.wikitext.ant_3.0.35.20191206145759.jar
file:/C:/Users/limao/.p2/pool/plugins/org.eclipse.mylyn.wikitext.asciidoc_3.0.35.20191206145759.jar
file:/C:/Users/limao/.p2/pool/plugins/org.eclipse.mylyn.wikitext.asciidoc.ui_3.0.35.201912061959.jar
file:/C:/Users/limao/.p2/pool/plugins/org.eclipse.mylyn.wikitext.confluence_3.0.35.20191206145759.jar
file:/C:/Users/limao/.p2/pool/plugins/org.eclipse.mylyn.wikitext.confluence.ui_3.0.35.201912061959.jar
file:/C:/Users/limao/.p2/pool/plugins/org.eclipse.mylyn.wikitext.context.ui_3.0.35.201912061959.jar
file:/C:/Users/limao/.p2/pool/plugins/org.eclipse.mylyn.wikitext.help.ui_3.0.35.201912061959.jar
file:/C:/Users/limao/.p2/pool/plugins/org.eclipse.mylyn.wikitext.html_3.0.35.20191206145759.jar
file:/C:/Users/limao/.p2/pool/plugins/org.eclipse.mylyn.wikitext.markdown_3.0.35.20191206145759.jar
file:/C:/Users/limao/.p2/pool/plugins/org.eclipse.mylyn.wikitext.markdown.ui_3.0.35.201912061959.jar
file:/C:/Users/limao/.p2/pool/plugins/org.eclipse.mylyn.wikitext.mediawiki_3.0.35.20191206145759.jar
file:/C:/Users/limao/.p2/pool/plugins/org.eclipse.mylyn.wikitext.mediawiki.ui_3.0.35.201912061959.jar
file:/C:/Users/limao/.p2/pool/plugins/org.eclipse.mylyn.wikitext.osgi_3.0.35.201912061959.jar
file:/C:/Users/limao/.p2/pool/plugins/org.eclipse.mylyn.wikitext.tasks.ui_3.0.35.201912061959.jar
file:/C:/Users/limao/.p2/pool/plugins/org.eclipse.mylyn.wikitext.textile_3.0.35.20191206145759.jar
file:/C:/Users/limao/.p2/pool/plugins/org.eclipse.mylyn.wikitext.textile.ui_3.0.35.201912061959.jar
file:/C:/Users/limao/.p2/pool/plugins/org.eclipse.mylyn.wikitext.tracwiki_3.0.35.20191206145759.jar
file:/C:/Users/limao/.p2/pool/plugins/org.eclipse.mylyn.wikitext.tracwiki.ui_3.0.35.201912061959.jar
file:/C:/Users/limao/.p2/pool/plugins/org.eclipse.mylyn.wikitext.twiki_3.0.35.20191206145759.jar
file:/C:/Users/limao/.p2/pool/plugins/org.eclipse.mylyn.wikitext.twiki.ui_3.0.35.201912061959.jar
file:/C:/Users/limao/.p2/pool/plugins/org.eclipse.mylyn.wikitext.ui_3.0.35.201912061959.jar
file:/C:/Users/limao/.p2/pool/plugins/org.eclipse.nebula.widgets.tablecombo_1.2.0.202001290259.jar
file:/C:/Users/limao/.p2/pool/plugins/org.eclipse.oomph.base_1.13.0.v20200203-0955.jar
file:/C:/Users/limao/.p2/pool/plugins/org.eclipse.oomph.base.edit_1.12.0.v20190702-1454.jar
file:/C:/Users/limao/.p2/pool/plugins/org.eclipse.oomph.extractor.lib_1.7.0.v20191111-0627.jar
file:/C:/Users/limao/.p2/pool/plugins/org.eclipse.oomph.jreinfo_1.12.0.v20191228-0803.jar
file:/C:/Users/limao/.p2/pool/plugins/org.eclipse.oomph.jreinfo.ui_1.11.0.v20191006-0741.jar
file:/C:/Users/limao/.p2/pool/plugins/org.eclipse.oomph.jreinfo.win32.x86_64_1.7.0.v20191107-1011.jar
file:/C:/Users/limao/.p2/pool/plugins/org.eclipse.oomph.p2_1.12.0.v20200203-0955.jar
file:/C:/Users/limao/.p2/pool/plugins/org.eclipse.oomph.p2.core_1.15.0.v20200202-1112.jar
file:/C:/Users/limao/.p2/pool/plugins/org.eclipse.oomph.p2.doc_1.11.0.v20200204-0711.jar
file:/C:/Users/limao/.p2/pool/plugins/org.eclipse.oomph.p2.edit_1.12.0.v20200202-1112.jar
file:/C:/Users/limao/.p2/pool/plugins/org.eclipse.oomph.p2.ui_1.13.0.v20200202-1112.jar
file:/C:/Users/limao/.p2/pool/plugins/org.eclipse.oomph.predicates_1.11.0.v20190920-0437.jar
file:/C:/Users/limao/.p2/pool/plugins/org.eclipse.oomph.predicates.edit_1.10.0.v20180706-1242.jar
file:/C:/Users/limao/.p2/pool/plugins/org.eclipse.oomph.preferences_1.11.0.v20190920-0437.jar
file:/C:/Users/limao/.p2/pool/plugins/org.eclipse.oomph.resources_1.12.0.v20190920-0437.jar
file:/C:/Users/limao/.p2/pool/plugins/org.eclipse.oomph.resources.edit_1.10.0.v20180706-1242.jar
file:/C:/Users/limao/.p2/pool/plugins/org.eclipse.oomph.setup_1.16.0.v20200203-0955.jar
file:/C:/Users/limao/.p2/pool/plugins/org.eclipse.oomph.setup.core_1.16.0.v20200110-0857.jar
file:/C:/Users/limao/.p2/pool/plugins/org.eclipse.oomph.setup.doc_1.11.0.v20200204-0711.jar
file:/C:/Users/limao/.p2/pool/plugins/org.eclipse.oomph.setup.edit_1.14.0.v20190704-1252.jar
file:/C:/Users/limao/.p2/pool/plugins/org.eclipse.oomph.setup.editor_1.16.0.v20200202-1112.jar
file:/C:/Users/limao/.p2/pool/plugins/org.eclipse.oomph.setup.p2_1.14.0.v20200202-1112.jar
file:/C:/Users/limao/.p2/pool/plugins/org.eclipse.oomph.setup.p2.edit_1.12.0.v20200202-1112.jar
file:/C:/Users/limao/.p2/pool/plugins/org.eclipse.oomph.setup.sync_1.12.0.v20200203-0955.jar
file:/C:/Users/limao/.p2/pool/plugins/org.eclipse.oomph.setup.ui_1.16.0.v20200202-1112.jar
file:/C:/Users/limao/.p2/pool/plugins/org.eclipse.oomph.setup.ui.questionnaire_1.10.0.v20180706-1242.jar
file:/C:/Users/limao/.p2/pool/plugins/org.eclipse.oomph.ui_1.13.0.v20191221-1101.jar
file:/C:/Users/limao/.p2/pool/plugins/org.eclipse.oomph.util_1.14.0.v20200113-0727.jar
file:/C:/Users/limao/.p2/pool/plugins/org.eclipse.oomph.workingsets_1.10.0.v20180706-1242.jar
file:/C:/Users/limao/.p2/pool/plugins/org.eclipse.oomph.workingsets.edit_1.10.0.v20180706-1242.jar
file:/C:/Users/limao/.p2/pool/plugins/org.eclipse.oomph.workingsets.editor_1.11.0.v20190929-1544.jar
file:/C:/Users/limao/.p2/pool/plugins/org.eclipse.osgi_3.15.100.v20191114-1701.jar
file:/C:/Users/limao/.p2/pool/plugins/org.eclipse.osgi.compatibility.state_1.1.600.v20190814-1451.jar
file:/C:/Users/limao/.p2/pool/plugins/org.eclipse.osgi.services_3.8.0.v20190206-2147.jar
file:/C:/Users/limao/.p2/pool/plugins/org.eclipse.osgi.util_3.5.300.v20190708-1141.jar
file:/C:/Users/limao/.p2/pool/plugins/org.eclipse.pde_3.13.800.v20191210-0610.jar
file:/C:/Users/limao/.p2/pool/plugins/org.eclipse.pde.api.tools_1.1.1000.v20191113-1255.jar
file:/C:/Users/limao/.p2/pool/plugins/org.eclipse.pde.api.tools.annotations_1.1.400.v20190929-1236.jar
file:/C:/Users/limao/.p2/pool/plugins/org.eclipse.pde.api.tools.ui_1.1.900.v20191115-2141.jar
file:/C:/Users/limao/.p2/pool/plugins/org.eclipse.pde.build_3.10.600.v20191011-0535/
file:/C:/Users/limao/.p2/pool/plugins/org.eclipse.pde.core_3.13.200.v20191202-2135.jar
file:/C:/Users/limao/.p2/pool/plugins/org.eclipse.pde.doc.user_3.14.600.v20191204-0828.jar
file:/C:/Users/limao/.p2/pool/plugins/org.eclipse.pde.ds.annotations_1.1.600.v20190929-1236.jar
file:/C:/Users/limao/.p2/pool/plugins/org.eclipse.pde.ds.core_1.1.700.v20191011-0635.jar
file:/C:/Users/limao/.p2/pool/plugins/org.eclipse.pde.ds.lib_1.1.400.v20191119-0943/
file:/C:/Users/limao/.p2/pool/plugins/org.eclipse.pde.ds.ui_1.1.700.v20190807-1130.jar
file:/C:/Users/limao/.p2/pool/plugins/org.eclipse.pde.ds1_2.lib_1.0.400.v20191119-0943/
file:/C:/Users/limao/.p2/pool/plugins/org.eclipse.pde.genericeditor.extension_1.0.600.v20191107-0648.jar
file:/C:/Users/limao/.p2/pool/plugins/org.eclipse.pde.junit.runtime_3.5.600.v20191105-0947.jar
file:/C:/Users/limao/.p2/pool/plugins/org.eclipse.pde.launching_3.8.0.v20191112-0655.jar
file:/C:/Users/limao/.p2/pool/plugins/org.eclipse.pde.runtime_3.6.700.v20191107-0634.jar
file:/C:/Users/limao/.p2/pool/plugins/org.eclipse.pde.ua.core_1.1.400.v20190929-1236.jar
file:/C:/Users/limao/.p2/pool/plugins/org.eclipse.pde.ua.ui_1.1.700.v20191011-0551.jar
file:/C:/Users/limao/.p2/pool/plugins/org.eclipse.pde.ui_3.11.200.v20191112-0626.jar
file:/C:/Users/limao/.p2/pool/plugins/org.eclipse.pde.ui.templates_3.6.800.v20191003-1016.jar
file:/C:/Users/limao/.p2/pool/plugins/org.eclipse.persistence.antlr_3.5.2.v201711011707.jar
file:/C:/Users/limao/.p2/pool/plugins/org.eclipse.persistence.asm_6.2.0.v201808041549.jar
file:/C:/Users/limao/.p2/pool/plugins/org.eclipse.persistence.core_2.7.3.v20180807-4be1041.jar
file:/C:/Users/limao/.p2/pool/plugins/org.eclipse.persistence.jpa_2.7.3.v20180807-4be1041.jar
file:/C:/Users/limao/.p2/pool/plugins/org.eclipse.persistence.jpa.jpql_2.7.3.v20180807-4be1041.jar
file:/C:/Users/limao/.p2/pool/plugins/org.eclipse.persistence.moxy_2.7.3.v20180807-4be1041.jar
file:/C:/Users/limao/.p2/pool/plugins/org.eclipse.platform_4.14.0.v20191210-0610/
file:/C:/Users/limao/.p2/pool/plugins/org.eclipse.platform.doc.user_4.14.0.v20191204-0828.jar
file:/C:/Users/limao/.p2/pool/plugins/org.eclipse.rcp_4.14.0.v20191210-0610.jar
file:/C:/Users/limao/.p2/pool/plugins/org.eclipse.rse.core_4.5.100.201901312252.jar
file:/C:/Users/limao/.p2/pool/plugins/org.eclipse.rse.files.ui_4.5.100.201901312252.jar
file:/C:/Users/limao/.p2/pool/plugins/org.eclipse.rse.services_4.5.100.201901312252.jar
file:/C:/Users/limao/.p2/pool/plugins/org.eclipse.rse.subsystems.files.core_4.5.100.201901312252.jar
file:/C:/Users/limao/.p2/pool/plugins/org.eclipse.rse.subsystems.shells.core_4.5.100.201901312252.jar
file:/C:/Users/limao/.p2/pool/plugins/org.eclipse.rse.ui_4.5.100.201901312252.jar
file:/C:/Users/limao/.p2/pool/plugins/org.eclipse.search_3.11.800.v20191122-2108.jar
file:/C:/Users/limao/.p2/pool/plugins/org.eclipse.swt_3.113.0.v20191204-0601.jar
file:/C:/Users/limao/.p2/pool/plugins/org.eclipse.swt.win32.win32.x86_64_3.113.0.v20191204-0601.jar
file:/C:/Users/limao/.p2/pool/plugins/org.eclipse.team.core_3.8.800.v20191122-2107.jar
file:/C:/Users/limao/.p2/pool/plugins/org.eclipse.team.genericeditor.diff.extension_1.0.500.v20190925-1021.jar
file:/C:/Users/limao/.p2/pool/plugins/org.eclipse.team.ui_3.8.700.v20191122-2107.jar
file:/C:/Users/limao/.p2/pool/plugins/org.eclipse.text_3.10.0.v20191122-2108.jar
file:/C:/Users/limao/.p2/pool/plugins/org.eclipse.text.quicksearch_1.0.100.v20191122-2108.jar
file:/C:/Users/limao/.p2/pool/plugins/org.eclipse.tips.core_0.1.600.v20191123-0656.jar
file:/C:/Users/limao/.p2/pool/plugins/org.eclipse.tips.ide_0.1.700.v20191107-0642.jar
file:/C:/Users/limao/.p2/pool/plugins/org.eclipse.tips.json_0.1.500.v20191123-0656.jar
file:/C:/Users/limao/.p2/pool/plugins/org.eclipse.tips.ui_0.1.800.v20191030-1218.jar
file:/C:/Users/limao/.p2/pool/plugins/org.eclipse.tm.terminal.connector.local_4.5.100.201901312304.jar
file:/C:/Users/limao/.p2/pool/plugins/org.eclipse.tm.terminal.connector.process_4.5.100.201901312304.jar
file:/C:/Users/limao/.p2/pool/plugins/org.eclipse.tm.terminal.connector.ssh_4.5.100.201901312304.jar
file:/C:/Users/limao/.p2/pool/plugins/org.eclipse.tm.terminal.connector.telnet_4.5.100.201901312304.jar
file:/C:/Users/limao/.p2/pool/plugins/org.eclipse.tm.terminal.control_4.5.102.201907171153.jar
file:/C:/Users/limao/.p2/pool/plugins/org.eclipse.tm.terminal.view.core_4.5.100.201901312304.jar
file:/C:/Users/limao/.p2/pool/plugins/org.eclipse.tm.terminal.view.ui_4.5.200.201911231043.jar
file:/C:/Users/limao/.p2/pool/plugins/org.eclipse.tools.layout.spy_1.0.400.v20190709-0901.jar
file:/C:/Users/limao/.p2/pool/plugins/org.eclipse.ui_3.115.0.v20191127-1056.jar
file:/C:/Users/limao/.p2/pool/plugins/org.eclipse.ui.browser_3.6.600.v20191122-2109.jar
file:/C:/Users/limao/.p2/pool/plugins/org.eclipse.ui.cheatsheets_3.5.600.v20191123-0656.jar
file:/C:/Users/limao/.p2/pool/plugins/org.eclipse.ui.console_3.9.0.v20191126-0912.jar
file:/C:/Users/limao/.p2/pool/plugins/org.eclipse.ui.editors_3.13.0.v20191203-1122.jar
file:/C:/Users/limao/.p2/pool/plugins/org.eclipse.ui.externaltools_3.4.500.v20191025-1523.jar
file:/C:/Users/limao/.p2/pool/plugins/org.eclipse.ui.forms_3.8.200.v20191114-0830.jar
file:/C:/Users/limao/.p2/pool/plugins/org.eclipse.ui.genericeditor_1.1.600.v20191114-0832.jar
file:/C:/Users/limao/.p2/pool/plugins/org.eclipse.ui.ide_3.16.100.v20191122-2109.jar
file:/C:/Users/limao/.p2/pool/plugins/org.eclipse.ui.ide.application_1.3.500.v20191122-2109.jar
file:/C:/Users/limao/.p2/pool/plugins/org.eclipse.ui.intro_3.5.800.v20191123-0656.jar
file:/C:/Users/limao/.p2/pool/plugins/org.eclipse.ui.intro.quicklinks_1.0.400.v20191119-0804.jar
file:/C:/Users/limao/.p2/pool/plugins/org.eclipse.ui.intro.universal_3.3.700.v20191025-0657.jar
file:/C:/Users/limao/.p2/pool/plugins/org.eclipse.ui.monitoring_1.1.600.v20191106-1253.jar
file:/C:/Users/limao/.p2/pool/plugins/org.eclipse.ui.navigator_3.9.100.v20191122-2109.jar
file:/C:/Users/limao/.p2/pool/plugins/org.eclipse.ui.navigator.resources_3.7.100.v20191209-1336.jar
file:/C:/Users/limao/.p2/pool/plugins/org.eclipse.ui.net_1.3.600.v20190925-1021.jar
file:/C:/Users/limao/.p2/pool/plugins/org.eclipse.ui.themes_1.2.800.v20191127-1314/
file:/C:/Users/limao/.p2/pool/plugins/org.eclipse.ui.trace_1.1.700.v20191105-1619.jar
file:/C:/Users/limao/.p2/pool/plugins/org.eclipse.ui.views_3.10.100.v20191114-0830.jar
file:/C:/Users/limao/.p2/pool/plugins/org.eclipse.ui.views.log_1.2.900.v20191122-2109.jar
file:/C:/Users/limao/.p2/pool/plugins/org.eclipse.ui.views.properties.tabbed_3.8.700.v20191113-0939.jar
file:/C:/Users/limao/.p2/pool/plugins/org.eclipse.ui.win32_3.4.300.v20190926-0808.jar
file:/C:/Users/limao/.p2/pool/plugins/org.eclipse.ui.workbench_3.117.0.v20191126-1131.jar
file:/C:/Users/limao/.p2/pool/plugins/org.eclipse.ui.workbench.texteditor_3.14.0.v20191122-2108.jar
file:/C:/Users/limao/.p2/pool/plugins/org.eclipse.update.configurator_3.4.400.v20191122-2102.jar
file:/C:/Users/limao/.p2/pool/plugins/org.eclipse.urischeme_1.0.500.v20191122-2109.jar
file:/C:/Users/limao/.p2/pool/plugins/org.eclipse.userstorage_1.2.0.v20190307-0457.jar
file:/C:/Users/limao/.p2/pool/plugins/org.eclipse.userstorage.oauth_1.1.0.v20190307-0457.jar
file:/C:/Users/limao/.p2/pool/plugins/org.eclipse.userstorage.ui_1.1.0.v20190307-0457.jar
file:/C:/Users/limao/.p2/pool/plugins/org.eclipse.wst.command.env_1.0.500.v201903050508.jar
file:/C:/Users/limao/.p2/pool/plugins/org.eclipse.wst.command.env.core_1.1.0.v201910301957.jar
file:/C:/Users/limao/.p2/pool/plugins/org.eclipse.wst.command.env.doc.user_1.5.400.v201903222115.jar
file:/C:/Users/limao/.p2/pool/plugins/org.eclipse.wst.command.env.infopop_1.0.200.v201903050508.jar
file:/C:/Users/limao/.p2/pool/plugins/org.eclipse.wst.command.env.ui_1.2.0.v201910301957.jar
file:/C:/Users/limao/.p2/pool/plugins/org.eclipse.wst.common.core_1.3.0.v201903222010.jar
file:/C:/Users/limao/.p2/pool/plugins/org.eclipse.wst.common.emf_1.2.600.v201903222010.jar
file:/C:/Users/limao/.p2/pool/plugins/org.eclipse.wst.common.emfworkbench.integration_1.2.101.v201903222010.jar
file:/C:/Users/limao/.p2/pool/plugins/org.eclipse.wst.common.environment_1.0.400.v201903222010.jar
file:/C:/Users/limao/.p2/pool/plugins/org.eclipse.wst.common.frameworks_1.2.201.v201903222010.jar
file:/C:/Users/limao/.p2/pool/plugins/org.eclipse.wst.common.frameworks.ui_1.2.400.v201903222010.jar
file:/C:/Users/limao/.p2/pool/plugins/org.eclipse.wst.common.infopop_1.0.300.v201903222010.jar
file:/C:/Users/limao/.p2/pool/plugins/org.eclipse.wst.common.modulecore_1.3.100.v201903222010.jar
file:/C:/Users/limao/.p2/pool/plugins/org.eclipse.wst.common.modulecore.ui_1.0.301.v201903222010.jar
file:/C:/Users/limao/.p2/pool/plugins/org.eclipse.wst.common.project.facet.core_1.4.400.v201903222010.jar
file:/C:/Users/limao/.p2/pool/plugins/org.eclipse.wst.common.project.facet.ui_1.4.601.v201903222010.jar
file:/C:/Users/limao/.p2/pool/plugins/org.eclipse.wst.common.snippets_1.2.500.v201811170421.jar
file:/C:/Users/limao/.p2/pool/plugins/org.eclipse.wst.common.ui_1.1.700.v201905071717.jar
file:/C:/Users/limao/.p2/pool/plugins/org.eclipse.wst.common.uriresolver_1.2.300.v201903222010.jar
file:/C:/Users/limao/.p2/pool/plugins/org.eclipse.wst.css.core_1.2.0.v201904210526.jar
file:/C:/Users/limao/.p2/pool/plugins/org.eclipse.wst.css.ui_1.1.300.v201911262315.jar
file:/C:/Users/limao/.p2/pool/plugins/org.eclipse.wst.doc.user_1.2.0.v201903222120.jar
file:/C:/Users/limao/.p2/pool/plugins/org.eclipse.wst.dtd.core_1.2.0.v201903222120.jar
file:/C:/Users/limao/.p2/pool/plugins/org.eclipse.wst.dtd.ui_1.1.200.v201904272112.jar
file:/C:/Users/limao/.p2/pool/plugins/org.eclipse.wst.dtd.ui.infopop_1.0.400.v201903222120.jar
file:/C:/Users/limao/.p2/pool/plugins/org.eclipse.wst.dtdeditor.doc.user_1.1.0.v201903222120.jar
file:/C:/Users/limao/.p2/pool/plugins/org.eclipse.wst.html.core_1.3.200.v201910140306.jar
file:/C:/Users/limao/.p2/pool/plugins/org.eclipse.wst.html.ui_1.1.200.v201905301652.jar
file:/C:/Users/limao/.p2/pool/plugins/org.eclipse.wst.html.ui.infopop_1.0.201.v201903222120.jar
file:/C:/Users/limao/.p2/pool/plugins/org.eclipse.wst.internet.cache_1.0.800.v201903222010.jar
file:/C:/Users/limao/.p2/pool/plugins/org.eclipse.wst.internet.monitor.core_1.0.700.v201910252115.jar
file:/C:/Users/limao/.p2/pool/plugins/org.eclipse.wst.internet.monitor.ui_1.0.800.v201910252115.jar
file:/C:/Users/limao/.p2/pool/plugins/org.eclipse.wst.jsdt.chromium_0.5.200.v201903222101.jar
file:/C:/Users/limao/.p2/pool/plugins/org.eclipse.wst.jsdt.chromium.debug_0.4.0.v201903222101.jar
file:/C:/Users/limao/.p2/pool/plugins/org.eclipse.wst.jsdt.chromium.debug.core_0.5.300.v201903222101.jar
file:/C:/Users/limao/.p2/pool/plugins/org.eclipse.wst.jsdt.chromium.debug.js_0.1.200.v201903222101.jar
file:/C:/Users/limao/.p2/pool/plugins/org.eclipse.wst.jsdt.chromium.debug.jsdtbridge_0.5.200.v201903222101.jar
file:/C:/Users/limao/.p2/pool/plugins/org.eclipse.wst.jsdt.chromium.debug.ui_0.6.200.v201903222101.jar
file:/C:/Users/limao/.p2/pool/plugins/org.eclipse.wst.jsdt.chromium.wip.eclipse_0.5.200.v201903222101.jar
file:/C:/Users/limao/.p2/pool/plugins/org.eclipse.wst.jsdt.chromium.wipbackend.dev_0.5.300.v201903222101.jar
file:/C:/Users/limao/.p2/pool/plugins/org.eclipse.wst.jsdt.chromium.wipbackend.protocol_1_0_0.5.300.v201903222101.jar
file:/C:/Users/limao/.p2/pool/plugins/org.eclipse.wst.jsdt.core_2.0.302.v201903222047.jar
file:/C:/Users/limao/.p2/pool/plugins/org.eclipse.wst.jsdt.debug.core_3.2.200.v201903222047.jar
file:/C:/Users/limao/.p2/pool/plugins/org.eclipse.wst.jsdt.debug.crossfire_1.0.500.v201903222047.jar
file:/C:/Users/limao/.p2/pool/plugins/org.eclipse.wst.jsdt.debug.rhino_1.0.500.v201903222047.jar
file:/C:/Users/limao/.p2/pool/plugins/org.eclipse.wst.jsdt.debug.rhino.debugger_1.0.600.v201903222047.jar
file:/C:/Users/limao/.p2/pool/plugins/org.eclipse.wst.jsdt.debug.rhino.ui_1.0.500.v201903222047.jar
file:/C:/Users/limao/.p2/pool/plugins/org.eclipse.wst.jsdt.debug.transport_1.0.300.v201903222047.jar
file:/C:/Users/limao/.p2/pool/plugins/org.eclipse.wst.jsdt.debug.ui_1.0.600.v201903222047.jar
file:/C:/Users/limao/.p2/pool/plugins/org.eclipse.wst.jsdt.doc_2.0.200.v201903222101.jar
file:/C:/Users/limao/.p2/pool/plugins/org.eclipse.wst.jsdt.js.bower_1.0.200.v201903222101.jar
file:/C:/Users/limao/.p2/pool/plugins/org.eclipse.wst.jsdt.js.cli_1.0.0.v201903222101.jar
file:/C:/Users/limao/.p2/pool/plugins/org.eclipse.wst.jsdt.js.common_1.0.200.v201903222101.jar
file:/C:/Users/limao/.p2/pool/plugins/org.eclipse.wst.jsdt.js.grunt_1.0.200.v201903222101.jar
file:/C:/Users/limao/.p2/pool/plugins/org.eclipse.wst.jsdt.js.gulp_1.0.200.v201903222101.jar
file:/C:/Users/limao/.p2/pool/plugins/org.eclipse.wst.jsdt.js.node_1.1.100.v201903222101.jar
file:/C:/Users/limao/.p2/pool/plugins/org.eclipse.wst.jsdt.js.node.common_1.0.0.v201903222101.jar
file:/C:/Users/limao/.p2/pool/plugins/org.eclipse.wst.jsdt.js.npm_1.0.300.v201903222101.jar
file:/C:/Users/limao/.p2/pool/plugins/org.eclipse.wst.jsdt.manipulation_1.0.601.v201903222047.jar
file:/C:/Users/limao/.p2/pool/plugins/org.eclipse.wst.jsdt.support.firefox_1.0.501.v201903222047.jar
file:/C:/Users/limao/.p2/pool/plugins/org.eclipse.wst.jsdt.support.ie_1.0.601.v201903222047.jar
file:/C:/Users/limao/.p2/pool/plugins/org.eclipse.wst.jsdt.ui_2.0.401.v201912012351.jar
file:/C:/Users/limao/.p2/pool/plugins/org.eclipse.wst.jsdt.web.core_1.1.0.v201901071922.jar
file:/C:/Users/limao/.p2/pool/plugins/org.eclipse.wst.jsdt.web.support.jsp_1.1.0.v201901071922.jar
file:/C:/Users/limao/.p2/pool/plugins/org.eclipse.wst.jsdt.web.ui_1.2.0.v201904272112.jar
file:/C:/Users/limao/.p2/pool/plugins/org.eclipse.wst.json.bower.core_1.0.0.v201901071922.jar
file:/C:/Users/limao/.p2/pool/plugins/org.eclipse.wst.json.bower.ui_1.0.200.v201904210526.jar
file:/C:/Users/limao/.p2/pool/plugins/org.eclipse.wst.json.core_1.1.0.v201901152013.jar
file:/C:/Users/limao/.p2/pool/plugins/org.eclipse.wst.json.eslint.core_1.0.0.v201901071922.jar
file:/C:/Users/limao/.p2/pool/plugins/org.eclipse.wst.json.eslint.ui_1.0.200.v201904210526.jar
file:/C:/Users/limao/.p2/pool/plugins/org.eclipse.wst.json.jshint.core_1.0.1.v201908281850.jar
file:/C:/Users/limao/.p2/pool/plugins/org.eclipse.wst.json.jshint.ui_1.0.200.v201904210526.jar
file:/C:/Users/limao/.p2/pool/plugins/org.eclipse.wst.json.npm.core_1.0.0.v201901071922.jar
file:/C:/Users/limao/.p2/pool/plugins/org.eclipse.wst.json.npm.ui_1.0.100.v201904210526.jar
file:/C:/Users/limao/.p2/pool/plugins/org.eclipse.wst.json.schemaprocessor_1.0.200.v201901071922.jar
file:/C:/Users/limao/.p2/pool/plugins/org.eclipse.wst.json.ui_1.0.300.v201904210526.jar
file:/C:/Users/limao/.p2/pool/plugins/org.eclipse.wst.server.core_1.10.100.v201910252115.jar
file:/C:/Users/limao/.p2/pool/plugins/org.eclipse.wst.server.discovery_1.3.200.v201910252115.jar
file:/C:/Users/limao/.p2/pool/plugins/org.eclipse.wst.server.http.core_1.0.400.v201910252115.jar
file:/C:/Users/limao/.p2/pool/plugins/org.eclipse.wst.server.http.ui_1.0.500.v201910252115.jar
file:/C:/Users/limao/.p2/pool/plugins/org.eclipse.wst.server.preview_1.1.701.v201912051849.jar
file:/C:/Users/limao/.p2/pool/plugins/org.eclipse.wst.server.preview.adapter_1.1.500.v201910252115.jar
file:/C:/Users/limao/.p2/pool/plugins/org.eclipse.wst.server.ui_1.5.600.v201910252115.jar
file:/C:/Users/limao/.p2/pool/plugins/org.eclipse.wst.server.ui.doc.user_1.1.600.v201901310132.jar
file:/C:/Users/limao/.p2/pool/plugins/org.eclipse.wst.server.ui.infopop_1.1.200.v201901310132.jar
file:/C:/Users/limao/.p2/pool/plugins/org.eclipse.wst.sse.core_1.2.100.v201901310548.jar
file:/C:/Users/limao/.p2/pool/plugins/org.eclipse.wst.sse.doc.user_1.2.0.v201903222120.jar
file:/C:/Users/limao/.p2/pool/plugins/org.eclipse.wst.sse.ui_1.6.200.v201911262138.jar
file:/C:/Users/limao/.p2/pool/plugins/org.eclipse.wst.sse.ui.infopop_1.0.300.v201903222120.jar
file:/C:/Users/limao/.p2/pool/plugins/org.eclipse.wst.standard.schemas_1.0.800.v201901071922.jar
file:/C:/Users/limao/.p2/pool/plugins/org.eclipse.wst.validation_1.2.800.v201904082137.jar
file:/C:/Users/limao/.p2/pool/plugins/org.eclipse.wst.validation.infopop_1.0.300.v201903222010.jar
file:/C:/Users/limao/.p2/pool/plugins/org.eclipse.wst.validation.ui_1.2.600.v201903222010.jar
file:/C:/Users/limao/.p2/pool/plugins/org.eclipse.wst.web_1.2.100.v201905161255.jar
file:/C:/Users/limao/.p2/pool/plugins/org.eclipse.wst.web.ui_1.2.100.v201902281912.jar
file:/C:/Users/limao/.p2/pool/plugins/org.eclipse.wst.web.ui.infopop_1.0.300.v201903222120.jar
file:/C:/Users/limao/.p2/pool/plugins/org.eclipse.wst.webtools.doc.user_1.0.500.v201903222120.jar
file:/C:/Users/limao/.p2/pool/plugins/org.eclipse.wst.ws_1.1.500.v201910301957.jar
file:/C:/Users/limao/.p2/pool/plugins/org.eclipse.wst.ws.explorer_1.0.1000.v201910301957.jar
file:/C:/Users/limao/.p2/pool/plugins/org.eclipse.wst.ws.infopop_1.0.400.v201903050508.jar
file:/C:/Users/limao/.p2/pool/plugins/org.eclipse.wst.ws.parser_1.1.0.v201910301957.jar
file:/C:/Users/limao/.p2/pool/plugins/org.eclipse.wst.ws.service.policy_1.0.450.v201903050508.jar
file:/C:/Users/limao/.p2/pool/plugins/org.eclipse.wst.ws.service.policy.ui_1.0.500.v201903050508.jar
file:/C:/Users/limao/.p2/pool/plugins/org.eclipse.wst.ws.ui_1.2.0.v201910301957.jar
file:/C:/Users/limao/.p2/pool/plugins/org.eclipse.wst.wsdl_1.3.0.v201910301957.jar
file:/C:/Users/limao/.p2/pool/plugins/org.eclipse.wst.wsdl.ui_1.3.0.v201910301957.jar
file:/C:/Users/limao/.p2/pool/plugins/org.eclipse.wst.wsdl.ui.doc.user_1.0.850.v201903222115.jar
file:/C:/Users/limao/.p2/pool/plugins/org.eclipse.wst.wsdl.validation_1.2.0.v201910301957.jar
file:/C:/Users/limao/.p2/pool/plugins/org.eclipse.wst.wsi_1.1.0.v201910301957.jar
file:/C:/Users/limao/.p2/pool/plugins/org.eclipse.wst.wsi.ui_1.1.0.v201910301957.jar
file:/C:/Users/limao/.p2/pool/plugins/org.eclipse.wst.wsi.ui.doc.user_1.0.750.v201903222115.jar
file:/C:/Users/limao/.p2/pool/plugins/org.eclipse.wst.xml.core_1.2.200.v201911262147.jar
file:/C:/Users/limao/.p2/pool/plugins/org.eclipse.wst.xml.ui_1.2.300.v201904272112.jar
file:/C:/Users/limao/.p2/pool/plugins/org.eclipse.wst.xml.ui.infopop_1.0.400.v201903222120.jar
file:/C:/Users/limao/.p2/pool/plugins/org.eclipse.wst.xml.xpath.core_1.3.1.v201901071922.jar
file:/C:/Users/limao/.p2/pool/plugins/org.eclipse.wst.xml.xpath.ui_1.1.300.v201904282210.jar
file:/C:/Users/limao/.p2/pool/plugins/org.eclipse.wst.xml.xpath2_1.1.0.v201901071922.jar
file:/C:/Users/limao/.p2/pool/plugins/org.eclipse.wst.xml.xpath2.processor_2.1.101.v201903222120.jar
file:/C:/Users/limao/.p2/pool/plugins/org.eclipse.wst.xml.xpath2.processor.doc.user_2.1.0.v201901071922.jar
file:/C:/Users/limao/.p2/pool/plugins/org.eclipse.wst.xml.xpath2.wtptypes_2.0.0.v201901071922.jar
file:/C:/Users/limao/.p2/pool/plugins/org.eclipse.wst.xmleditor.doc.user_1.1.0.v201903222120.jar
file:/C:/Users/limao/.p2/pool/plugins/org.eclipse.wst.xsd.core_1.2.0.v201901071922.jar
file:/C:/Users/limao/.p2/pool/plugins/org.eclipse.wst.xsd.ui_1.3.300.v201904272112.jar
file:/C:/Users/limao/.p2/pool/plugins/org.eclipse.wst.xsdeditor.doc.user_1.0.800.v201903222120.jar
file:/C:/Users/limao/.p2/pool/plugins/org.eclipse.wst.xsl_1.2.0.v201901071922.jar
file:/C:/Users/limao/.p2/pool/plugins/org.eclipse.wst.xsl.core_1.2.100.v201907231732.jar
file:/C:/Users/limao/.p2/pool/plugins/org.eclipse.wst.xsl.debug.ui_1.1.0.v201901071922.jar
file:/C:/Users/limao/.p2/pool/plugins/org.eclipse.wst.xsl.doc_1.1.0.v201903222120.jar
file:/C:/Users/limao/.p2/pool/plugins/org.eclipse.wst.xsl.exslt.core_1.1.0.v201901071922.jar
file:/C:/Users/limao/.p2/pool/plugins/org.eclipse.wst.xsl.exslt.ui_1.1.0.v201901071922.jar
file:/C:/Users/limao/.p2/pool/plugins/org.eclipse.wst.xsl.jaxp.debug_1.1.0.v201901071922.jar
file:/C:/Users/limao/.p2/pool/plugins/org.eclipse.wst.xsl.jaxp.debug.ui_1.1.0.v201901071922.jar
file:/C:/Users/limao/.p2/pool/plugins/org.eclipse.wst.xsl.jaxp.launching_1.1.100.v201908180412.jar
file:/C:/Users/limao/.p2/pool/plugins/org.eclipse.wst.xsl.launching_1.2.0.v201901071922.jar
file:/C:/Users/limao/.p2/pool/plugins/org.eclipse.wst.xsl.saxon_1.1.0.v201901071922.jar
file:/C:/Users/limao/.p2/pool/plugins/org.eclipse.wst.xsl.ui_1.2.100.v201904272112.jar
file:/C:/Users/limao/.p2/pool/plugins/org.eclipse.wst.xsl.xalan_1.1.0.v201901071922.jar
file:/C:/Users/limao/.p2/pool/plugins/org.eclipse.wtp.epp.package.capabilities_1.3.0.v201902122017.jar
file:/C:/Users/limao/.p2/pool/plugins/org.eclipse.wtp.epp.package.jee.intro_1.3.0.v201902122017.jar
file:/C:/Users/limao/.p2/pool/plugins/org.eclipse.wtp.javascript.capabilities_1.0.200.v201901071922.jar
file:/C:/Users/limao/.p2/pool/plugins/org.eclipse.wtp.jee.capabilities_1.0.100.v201903222024.jar
file:/C:/Users/limao/.p2/pool/plugins/org.eclipse.wtp.web.capabilities_1.0.200.v201901071922.jar
file:/C:/Users/limao/.p2/pool/plugins/org.eclipse.wtp.xml.capabilities_1.0.200.v201901071922.jar
file:/C:/Users/limao/.p2/pool/plugins/org.eclipse.xsd_2.17.0.v20191117-1035.jar
file:/C:/Users/limao/.p2/pool/plugins/org.eclipse.xsd.edit_2.10.0.v20180706-1143.jar
file:/C:/Users/limao/.p2/pool/plugins/org.gradle.toolingapi_6.0.0.v20191118-1057.jar
file:/C:/Users/limao/.p2/pool/plugins/org.hamcrest.core_1.3.0.v20180420-1519.jar
file:/C:/Users/limao/.p2/pool/plugins/org.jacoco.agent_0.8.3.v20190219-1601.jar
file:/C:/Users/limao/.p2/pool/plugins/org.jacoco.core_0.8.3.v20190219-1601.jar
file:/C:/Users/limao/.p2/pool/plugins/org.jacoco.report_0.8.3.v20190219-1601.jar
file:/C:/Users/limao/.p2/pool/plugins/org.jdom_1.1.1.v201101151400.jar
file:/C:/Users/limao/.p2/pool/plugins/org.jsoup_1.8.3.v20181012-1713.jar
file:/C:/Users/limao/.p2/pool/plugins/org.junit_4.12.0.v201504281640/
file:/C:/Users/limao/.p2/pool/plugins/org.junit.jupiter.api_5.5.1.v20190826-0900.jar
file:/C:/Users/limao/.p2/pool/plugins/org.junit.jupiter.engine_5.5.1.v20190826-0900.jar
file:/C:/Users/limao/.p2/pool/plugins/org.junit.jupiter.migrationsupport_5.5.1.v20190826-0900.jar
file:/C:/Users/limao/.p2/pool/plugins/org.junit.jupiter.params_5.5.1.v20190826-0900.jar
file:/C:/Users/limao/.p2/pool/plugins/org.junit.platform.commons_1.5.1.v20190826-0900.jar
file:/C:/Users/limao/.p2/pool/plugins/org.junit.platform.engine_1.5.1.v20190826-0900.jar
file:/C:/Users/limao/.p2/pool/plugins/org.junit.platform.launcher_1.5.1.v20190826-0900.jar
file:/C:/Users/limao/.p2/pool/plugins/org.junit.platform.runner_1.5.1.v20190826-0900.jar
file:/C:/Users/limao/.p2/pool/plugins/org.junit.platform.suite.api_1.5.1.v20190826-0900.jar
file:/C:/Users/limao/.p2/pool/plugins/org.junit.vintage.engine_5.5.1.v20190826-0900.jar
file:/C:/Users/limao/.p2/pool/plugins/org.mozilla.javascript_1.7.5.v201504281450.jar
file:/C:/Users/limao/.p2/pool/plugins/org.objectweb.asm_7.2.0.v20191010-1910.jar
file:/C:/Users/limao/.p2/pool/plugins/org.objectweb.asm_7.0.0.v20181030-2244.jar
file:/C:/Users/limao/.p2/pool/plugins/org.objectweb.asm.commons_7.0.0.v20181030-2244.jar
file:/C:/Users/limao/.p2/pool/plugins/org.objectweb.asm.tree_7.2.0.v20191010-1910.jar
file:/C:/Users/limao/.p2/pool/plugins/org.objectweb.asm.tree_7.0.0.v20181030-2244.jar
file:/C:/Users/limao/.p2/pool/plugins/org.opentest4j_1.2.0.v20190826-0900.jar
file:/C:/Users/limao/.p2/pool/plugins/org.sat4j.core_2.3.5.v201308161310.jar
file:/C:/Users/limao/.p2/pool/plugins/org.sat4j.pb_2.3.5.v201404071733.jar
file:/C:/Users/limao/.p2/pool/plugins/org.slf4j.api_1.7.10.v20170428-1633.jar
file:/C:/Users/limao/.p2/pool/plugins/org.slf4j.api_1.7.2.v20121108-1250.jar
file:/C:/Users/limao/.p2/pool/plugins/org.slf4j.impl.log4j12_1.7.2.v20131105-2200.jar
file:/C:/Users/limao/.p2/pool/plugins/org.sonatype.m2e.mavenarchiver_0.17.4.201905300046.jar
file:/C:/Users/limao/.p2/pool/plugins/org.tukaani.xz_1.8.0.v20180207-1613.jar
file:/C:/Users/limao/.p2/pool/plugins/org.uddi4j_2.0.5.v200805270300.jar
file:/C:/Users/limao/.p2/pool/plugins/org.w3c.css.sac_1.3.1.v200903091627.jar
file:/C:/Users/limao/.p2/pool/plugins/org.w3c.dom.events_3.0.0.draft20060413_v201105210656.jar
file:/C:/Users/limao/.p2/pool/plugins/org.w3c.dom.smil_1.0.1.v200903091627.jar
file:/C:/Users/limao/.p2/pool/plugins/org.w3c.dom.svg_1.1.0.v201011041433.jar
